Name,Division,WeightClassKg,Squat1Kg,Squat2Kg,Squat3Kg,Best3SquatKg,Bench1Kg,Bench2Kg,Bench3Kg,Best3BenchKg,Deadlift1Kg,Deadlift2Kg,Deadlift3Kg,Best3DeadliftKg,TotalKg,Place,Event,Equipment,Sex,Age,BirthDate,Country
Andrey Malanichev,M-OR,140+,450,470,-490,470,230,-245,245,245,360,-390,390,390,1105,1,SBD,Wraps,M,,,Russia
Shawn Doyle,M-OR,140+,405,425,435,435,245,255,260,260,380,395,-405,395,1090,2,SBD,Wraps,M,,,USA
Daniel Bell #1,M-OR,140+,400,445,-460,445,227.5,237.5,245,245,365,387.5,-410,387.5,1077.5,3,SBD,Wraps,M,,1986-09-22,USA
Eric Lilliebridge,M-OR,140+,410,445,-480,445,220,232.5,242.5,242.5,360,390,-410,390,1077.5,3,SBD,Wraps,M,,,USA
Alex Simon,M-OR,140+,405,-435,435,435,240,250,260,260,-382.5,382.5,,382.5,1077.5,3,SBD,Wraps,M,,1992-12-11,Australia
Gawain Johnstone,M-OR,140+,400,425,435,435,200,210,215,215,350,380,390,390,1040,6,SBD,Wraps,M,,,Australia
Luke Poli,M-OR,140+,370,400,-410,400,220,240,245,245,320,340,-355,340,985,7,SBD,Wraps,M,40,,Australia
Phil Wilde,M-OR,140+,-380,380,400,400,200,215,-227.5,215,300,-312.5,312.5,312.5,927.5,8,SBD,Wraps,M,,,Australia
