Place,Name,State,WeightClassKg,BodyweightKg,Age,Best3SquatKg,Best3BenchKg,Best3DeadliftKg,TotalKg,Sex,Division,Equipment,Deadlift4Kg,Event
1,Perla Apodaca,TX,60,59.51,23,160.00,67.50,170.00,397.50,F,Juniors 20-23,Raw,,SBD
1,Perla Apodaca,TX,60,59.51,23,160.00,67.50,170.00,397.50,F,Open,Raw,,SBD
2,April Garcia,NM,60,57.24,24,80.00,62.50,132.50,275.00,F,Open,Raw,,SBD
1,Alicia Chavez,NM,67.5,63.23,24,105.00,52.50,145.00,302.50,F,Open,Raw,,SBD
2,Jessica Williams,NM,67.5,62.60,31,107.50,57.50,110.00,275.00,F,Open,Raw,,SBD
3,Rachael Sewards,NM,67.5,64.23,32,57.50,37.50,107.50,202.50,F,Open,Raw,,SBD
1,Dana Ashcraft,NM,75,68.58,23,115.00,55.00,132.50,302.50,F,Open,Raw,,SBD
1,Genieve Sanchez,NM,90,88.27,33,102.50,62.50,145.00,310.00,F,Open,Raw,147.5,SBD
1,Christina Sosa,NM,90+,111.86,25,90.00,55.00,115.00,260.00,F,Open,Raw,,SBD
1,Melva Chavez,NM,67.5,66.68,40,80.00,50.00,112.50,242.50,F,Masters 40-44,Raw,,SBD
1,Linda Barber,NM,75,72.94,54,60.00,40.00,97.50,197.50,F,Masters,Raw,,SBD
1,Diane Santiago,NM,82.5,80.83,45,82.50,42.50,120.00,245.00,F,Masters 45-49,Raw,,SBD
DQ,Daniel Nguyen,NM,75,71.21,22,-147.50,90.00,172.50,,M,Juniors 20-23,Raw,,SBD
1,Noah Lopez,NM,82.5,78.02,14,122.50,87.50,150.00,360.00,M,Juniors 13-15,Raw,155.0,SBD
1,Joseph Valdez,NM,110,108.23,23,200.00,130.00,275.00,605.00,M,Juniors 20-23,Raw,,SBD
DQ,Grady Williams,NM,67.5,67.31,33,-135.00,92.50,132.50,,M,Open,Raw,,SBD
1,Utsireletsoe Nare,NM,75,73.39,23,162.50,102.50,245.00,510.00,M,Open,Raw,,SBD
1,Kyle Kudrna,NM,82.5,82.46,25,217.50,122.50,207.50,547.50,M,Open,Raw,227.5,SBD
2,Utloanang Nare,NM,82.5,77.93,25,155.00,115.00,210.00,480.00,M,Open,Raw,,SBD
3,Andrew Garcia,NM,82.5,79.83,29,142.50,105.00,167.50,415.00,M,Open,Raw,,SBD
1,Ezrah Reed,NM,90,84.73,28,215.00,160.00,300.00,675.00,M,Open,Raw,,SBD
2,Kenneth Keyes,NM,90,89.54,23,165.00,115.00,220.00,500.00,M,Open,Raw,,SBD
3,Aaron Gelinas,NM,90,84.28,24,167.50,102.50,215.00,485.00,M,Open,Raw,,SBD
1,Christian Veltman,NM,100,98.25,24,170.00,105.00,202.50,477.50,M,Open,Raw,,SBD
1,Justin SanSouci,NM,110,107.05,33,212.50,172.50,217.50,602.50,M,Open,Raw,,SBD
2,Jesus Rios,NM,110,100.43,24,157.50,117.50,207.50,482.50,M,Open,Raw,,SBD
1,Andrew Hernandez,NM,125,124.38,35,235.00,140.00,250.00,625.00,M,Open,Raw,,SBD
1,Bryan Alm,TX,140+,154.40,41,320.00,212.50,317.50,850.00,M,Open,Raw,,SBD
1,Thomas Prando,NM,67.5,67.13,36,120.00,125.00,205.00,450.00,M,Submasters 35-39,Raw,,SBD
1,Barry Schroeder,NM,90,88.99,36,160.00,100.00,195.00,455.00,M,Submasters 35-39,Raw,,SBD
1,Kris Wyskochil,NM,100,99.43,37,120.00,80.00,160.00,360.00,M,Submasters 35-39,Raw,,SBD
DQ,Chris Norton,NM,82.5,82.46,46,-135.00,107.50,192.50,,M,Masters 45-49,Raw,,SBD
1,Bryan Alm,TX,140+,154.40,41,320.00,212.50,317.50,850.00,M,Masters 45-49,Raw,,SBD
1,Marisa Perez,NM,60,59.33,20,85.00,40.00,120.00,245.00,F,Juniors 20-23,Wraps,,SBD
1,Victoria Limon,NM,67.5,66.95,19,82.50,37.50,127.50,247.50,F,Juniors 18-19,Wraps,,SBD
DQ,Nayell Palomino,TX,67.5,67.31,22,,52.50,147.50,,F,Juniors 20-23,Wraps,,SBD
1,Alyssa Cottman,TX,82.5,80.47,22,105.00,45.00,145.00,295.00,F,Juniors 20-23,Wraps,,SBD
1,April Hawkes,NM,48,47.45,34,80.00,50.00,87.50,217.50,F,Open,Wraps,,SBD
1,Suzanne Davis,AZ,56,55.61,43,137.50,75.00,190.00,402.50,F,Open,Wraps,,SBD
DQ,Adrienne Duran,NM,60,58.15,28,-97.50,62.50,117.50,,F,Open,Wraps,,SBD
1,Monica Chaffin,NM,67.5,61.96,30,105.00,55.00,130.00,290.00,F,Open,Wraps,,SBD
DQ,Brandy Gulas,NM,67.5,60.42,33,-62.50,45.00,105.00,,F,Open,Wraps,,SBD
DQ,Jennifer Lucero,NM,67.5,63.41,34,-80.00,50.00,132.50,,F,Open,Wraps,,SBD
DQ,Nayell Palomino,TX,67.5,67.31,22,-130.00,52.50,147.50,,F,Open,Wraps,,SBD
1,Alyssa Cottman,TX,82.5,80.47,22,105.00,45.00,145.00,295.00,F,Open,Wraps,,SBD
1,Martina Solis,NM,90+,91.90,29,132.50,60.00,152.50,345.00,F,Open,Wraps,,SBD
1,Yvette Wyskochil,NM,75,74.66,36,102.50,50.00,132.50,285.00,F,Submasters 35-39,Wraps,135.0,SBD
1,Suzanne Davis,AZ,56,55.61,43,137.50,75.00,190.00,402.50,F,Masters 40-44,Wraps,,SBD
1,Shane Goeckner,NM,82.5,82.10,19,157.50,107.50,197.50,462.50,M,Juniors 18-19,Wraps,,SBD
1,Tyler Trainum,NM,90,88.54,17,212.50,132.50,220.00,565.00,M,Juniors 16-17,Wraps,,SBD
1,Justin Sandoval,NM,90,88.00,23,200.00,127.50,230.00,557.50,M,Juniors 20-23,Wraps,,SBD
2,Joseph Saiz,NM,90,88.72,21,182.50,125.00,237.50,545.00,M,Juniors 20-23,Wraps,,SBD
1,Michael Armendariz,TX,100,95.80,23,312.50,165.00,300.00,777.50,M,Juniors 20-23,Wraps,,SBD
2,Justice Irons,NM,100,97.25,20,192.50,122.50,237.50,552.50,M,Juniors 20-23,Wraps,,SBD
1,Garrett Gonzalez,NM,82.5,80.38,27,210.00,130.00,272.50,612.50,M,Open,Wraps,,SBD
2,Jason Chavez,NM,82.5,80.92,31,152.50,142.50,195.00,490.00,M,Open,Wraps,,SBD
3,Jonathan Tapia,NM,82.5,77.20,30,127.50,90.00,175.00,392.50,M,Open,Wraps,,SBD
1,Justin Sandoval,NM,90,88.00,23,200.00,127.50,230.00,557.50,M,Open,Wraps,,SBD
1,Michael Armendariz,TX,100,95.80,23,312.50,165.00,300.00,777.50,M,Open,Wraps,,SBD
2,Sam Collopy,NM,100,98.52,29,260.00,180.00,287.50,727.50,M,Open,Wraps,,SBD
3,Stony Valdez,NM,100,99.43,24,272.50,145.00,250.00,667.50,M,Open,Wraps,,SBD
4,Nick Smith,NM,110,103.19,25,227.50,152.50,260.00,640.00,M,Open,Wraps,,SBD
1,Ismael Hernandez,TX,110,103.78,35,260.00,195.00,277.50,732.50,M,Open,Wraps,,SBD
2,Joshua Martin,TX,110,105.78,24,262.50,157.50,300.00,720.00,M,Open,Wraps,,SBD
3,Ryan Hahl,NM,110,107.41,31,237.50,170.00,250.00,657.50,M,Open,Wraps,,SBD
4,Erik Ruiz,NM,110,107.77,26,240.00,150.00,265.00,655.00,M,Open,Wraps,,SBD
1,Collin Rhodes,NM,140,129.09,48,310.00,217.50,300.00,827.50,M,Open,Wraps,,SBD
DQ,Johnny Hernandez,TX,140+,146.87,26,282.50,192.50,-320.00,,M,Open,Wraps,,SBD
1,Danny Maldonado,NM,67.5,66.86,35,157.50,110.00,182.50,450.00,M,Submasters 35-39,Wraps,,SBD
1,Ismael Hernandez,TX,110,103.78,35,260.00,195.00,277.50,732.50,M,Submasters 35-39,Wraps,,SBD
1,Collin Rhodes,NM,140,129.09,48,310.00,217.50,300.00,827.50,M,Masters 45-49,Wraps,,SBD
1,Karin Lax,NM,90,88.54,63,82.50,40.00,130.00,252.50,F,Masters 60-64,Single-ply,,SBD
1,Chuck Dryke,CO,90,87.45,54,180.00,85.00,195.00,460.00,M,Masters 50-54,Single-ply,,SBD
1,Kenny Croxdale,NM,90,88.18,66,190.00,127.50,200.00,517.50,M,Masters 65-69,Single-ply,,SBD
1,Aaron Bubbico,NM,75,74.03,27,,122.50,,122.50,M,Open,Raw,,B
1,Michael Flores,NM,100,99.52,42,,182.50,,182.50,M,Masters 40-44,Raw,,B
1,Russell Selcho,NM,110,105.60,42,,145.00,,145.00,M,Masters 40-44,Single-ply,,B
1,Amanda Brady,NM,60,58.60,27,,80.00,150.00,230.00,F,Open,Raw,,BD
1,Michael Otero,NM,140+,150.41,27,,227.50,357.50,585.00,M,Open,Raw,,BD
