Division,WeightClassKg,Place,Name,Team,BodyweightKg,Best3SquatKg,Best3BenchKg,Best3DeadliftKg,TotalKg,Equipment,Event,Sex
Boys,52,1,Noah Vasquez,Palmer,50.44,120.2,77.11,131.54,328.85,Single-ply,SBD,M
Boys,52,2,Will Hooten,Red Oak Life,46.81,88.45,47.63,92.99,229.06,Single-ply,SBD,M
Boys,56,1,Diego Rivera,Mexia,52.71,172.37,92.99,161.03,426.38,Single-ply,SBD,M
Boys,56,2,Brodie Cantu,Dawson,55.79,140.61,88.45,147.42,376.48,Single-ply,SBD,M
Boys,56,3,Marcos Dominguez,Buffalo,55.79,147.42,72.57,145.15,365.14,Single-ply,SBD,M
Boys,56,4,Corbin Donoho,Corsicana Mildred,55.79,122.47,65.77,142.88,331.12,Single-ply,SBD,M
Boys,56,5,Lucas Zepeda,Red Oak Life,55.79,129.27,61.23,136.08,326.59,Single-ply,SBD,M
Boys,56,6,Seth Shipp,Rice,52.98,133.81,68.04,120.2,322.05,Single-ply,SBD,M
Boys,56,7,James McIntyre,Milford,54.7,113.4,68.04,127.01,308.44,Single-ply,SBD,M
Boys,56,8,Travis Berryhill,Blooming Grove,53.07,120.2,68.04,115.67,303.91,Single-ply,SBD,M
Boys,56,DQ,Juan Hernandez #4,Palmer,54.98,138.35,,,,Single-ply,SBD,M
Boys,60,1,Chase Kirby,Dawson,57.79,149.69,83.91,158.76,392.36,Single-ply,SBD,M
Boys,60,2,William Ferlet,Dawson,59.87,138.35,86.18,158.76,383.29,Single-ply,SBD,M
Boys,60,3,Gerson Montano,Buffalo,59.24,147.42,74.84,154.22,376.48,Single-ply,SBD,M
Boys,60,4,Darius Jones,Dallas Life Oak Cliff,58.97,136.08,77.11,158.76,371.95,Single-ply,SBD,M
Boys,60,4,Darius Jones,Dallas Life Oak Cliff,58.97,136.08,77.11,158.76,371.95,Single-ply,SBD,M
Boys,60,5,Hayden Brown,Rio Vista,59.15,147.42,72.57,142.88,362.87,Single-ply,SBD,M
Boys,60,6,Manuel Villegas,Blooming Grove,59.42,124.74,79.38,142.88,347,Single-ply,SBD,M
Boys,60,7,Luis Laborador,Kerens,58.24,120.2,72.57,145.15,337.93,Single-ply,SBD,M
Boys,60,8,Zaahid Abdullah,Red Oak Life,58.24,138.35,63.5,124.74,326.59,Single-ply,SBD,M
Boys,60,9,Michael McCarter,Blooming Grove,58.97,113.4,65.77,142.88,322.05,Single-ply,SBD,M
Boys,60,DQ,Jose Silva,Palmer,58.97,108.86,,,,Single-ply,SBD,M
Boys,67.5,1,David Dilbeck,Blooming Grove,63.5,158.76,113.4,192.78,464.93,Single-ply,SBD,M
Boys,67.5,2,Jordan Ramirez,Palmer,65.14,170.1,102.06,185.97,458.13,Single-ply,SBD,M
Boys,67.5,3,Casey Stevenson,Rio Vista,64.05,158.76,97.52,167.83,424.11,Single-ply,SBD,M
Boys,67.5,4,David Sarabia,Mexia,66.22,163.29,79.38,156.49,399.16,Single-ply,SBD,M
Boys,67.5,5,Chris Soria,Buffalo,65.68,149.69,90.72,151.95,392.36,Single-ply,SBD,M
Boys,67.5,6,Jesse Heath,Corsicana Mildred,61.96,142.88,81.65,158.76,383.29,Single-ply,SBD,M
Boys,67.5,7,Dillon Beshears,Buffalo,62.78,149.69,83.91,145.15,378.75,Single-ply,SBD,M
Boys,67.5,8,Erwin Luevano,Blooming Grove,61.23,124.74,97.52,140.61,362.87,Single-ply,SBD,M
Boys,67.5,9,Ivan Dominguez,Buffalo,62.78,140.61,68.04,131.54,340.19,Single-ply,SBD,M
Boys,67.5,10,Corbon Schrotke,Milford,66.95,122.47,86.18,117.93,326.59,Single-ply,SBD,M
Boys,67.5,11,Elijah Lucero,Red Oak Life,65.95,102.06,61.23,124.74,288.03,Single-ply,SBD,M
Boys,67.5,DQ,Mason Ramon,Red Oak Life,64.05,131.54,,,,Single-ply,SBD,M
Boys,75,1,Samuel Cervantes,Buffalo,74.39,181.44,111.13,206.38,498.95,Single-ply,SBD,M
Boys,75,2,Chris Williams #2,Rio Vista,70.49,183.7,95.25,176.9,455.86,Single-ply,SBD,M
Boys,75,3,Damichael Harvey,Kerens,72.94,179.17,95.25,174.63,449.06,Single-ply,SBD,M
Boys,75,4,Ulices Guererro,Buffalo,68.49,165.56,90.72,172.37,428.64,Single-ply,SBD,M
Boys,75,5,Fallon Little,Corsicana Mildred,72.48,158.76,83.91,185.97,428.64,Single-ply,SBD,M
Boys,75,6,Dustin Thompson,Corsicana Mildred,73.94,167.83,88.45,172.37,428.64,Single-ply,SBD,M
Boys,75,7,Kolby Pederson,Hubbard,72.67,161.03,92.99,165.56,419.57,Single-ply,SBD,M
Boys,75,8,Elliot Worshan,Italy,68.13,151.95,83.91,163.29,399.16,Single-ply,SBD,M
Boys,75,9,Carson Roberts,Italy,68.13,151.95,99.79,142.88,394.63,Single-ply,SBD,M
Boys,75,10,Cody McCaleb,Kerens,72.57,140.61,79.38,145.15,365.14,Single-ply,SBD,M
Boys,75,11,Tharron Pearl,Mexia,74.75,145.15,81.65,138.35,365.14,Single-ply,SBD,M
Boys,75,12,Dakota Widenor,Palmer,69.76,138.35,74.84,147.42,360.61,Single-ply,SBD,M
Boys,75,DQ,Elder Arellano,Rice,72.39,,,,,Single-ply,SBD,M
Boys,75,DQ,Christian Howell,Hubbard,74.3,,,,,Single-ply,SBD,M
Boys,82.5,1,Hector Dominguez,Buffalo,78.83,213.19,113.4,210.92,537.51,Single-ply,SBD,M
Boys,82.5,2,Dylan Myers,Rice,80.56,188.24,129.27,174.63,492.15,Single-ply,SBD,M
Boys,82.5,3,Jed Wout,Blooming Grove,79.38,170.1,113.4,181.44,464.93,Single-ply,SBD,M
Boys,82.5,4,Logan Randal,Rio Vista,81.01,133.81,99.79,167.83,401.43,Single-ply,SBD,M
Boys,82.5,5,Shane Carroll,Red Oak Life,80.2,149.69,86.18,163.29,399.16,Single-ply,SBD,M
Boys,82.5,6,Steven Stagg,Hubbard,80.74,147.42,88.45,154.22,390.09,Single-ply,SBD,M
Boys,82.5,7,Isaac Garcia,Italy,81.74,142.88,90.72,145.15,378.75,Single-ply,SBD,M
Boys,82.5,8,Levi Kadaha,Kerens,78.2,127.01,104.33,138.35,369.68,Single-ply,SBD,M
Boys,82.5,DQ,Eli Garcia,Italy,78.65,,,,,Single-ply,SBD,M
Boys,82.5,DQ,Daniel Secrease,Dallas Life Oak Cliff,78.02,,,,,Single-ply,SBD,M
Boys,82.5,DQ,Zeke Ceron,Buffalo,80.92,145.15,86.18,,,Single-ply,SBD,M
Boys,82.5,DQ,Daniel Secrease,Dallas Life Oak Cliff,78.02,,,,,Single-ply,SBD,M
Boys,90,1,Logan Blake,Red Oak Life,86.82,235.87,131.54,181.44,548.85,Single-ply,SBD,M
Boys,90,2,Johnny Bustamante,Blooming Grove,88.45,217.72,113.4,199.58,530.7,Single-ply,SBD,M
Boys,90,3,Brian Black,Palmer,84.1,192.78,129.27,192.78,514.83,Single-ply,SBD,M
Boys,90,4,David Ramirez,Red Oak Life,89.45,192.78,117.93,204.12,514.83,Single-ply,SBD,M
Boys,90,5,Rahi Patel,Mexia,88.27,197.31,115.67,199.58,512.56,Single-ply,SBD,M
Boys,90,6,Hunter Morgan,Italy,82.83,197.31,111.13,188.24,496.68,Single-ply,SBD,M
Boys,90,7,Joe Celis,Italy,85.91,181.44,113.4,185.97,480.81,Single-ply,SBD,M
Boys,90,8,Jason Garcia,Blooming Grove,89.81,170.1,97.52,167.83,435.45,Single-ply,SBD,M
Boys,90,9,Caydon Ramsey,Mexia,86.18,154.22,90.72,154.22,399.16,Single-ply,SBD,M
Boys,90,10,Colton Wigand,Rio Vista,83.28,102.06,83.91,115.67,301.64,Single-ply,SBD,M
Boys,90,11,Brandon Faulkner,Rio Vista,88.9,95.25,74.84,120.2,290.3,Single-ply,SBD,M
Boys,100,1,Quenden Darby,Red Oak Life,95.98,208.65,106.59,199.58,514.83,Single-ply,SBD,M
Boys,100,2,Justin Horn #1,Corsicana Mildred,90.63,204.12,104.33,176.9,485.34,Single-ply,SBD,M
Boys,100,3,Zane Gilford,Rice,99.25,163.29,88.45,208.65,460.4,Single-ply,SBD,M
Boys,100,4,Pablo Pachuca,Kerens,90.54,176.9,92.99,181.44,451.32,Single-ply,SBD,M
Boys,100,5,Luis Reyes,Mexia,91.17,195.04,81.65,163.29,439.98,Single-ply,SBD,M
Boys,100,6,Trevor Brenham,Dallas Life Oak Cliff,99.06,170.1,88.45,174.63,433.18,Single-ply,SBD,M
Boys,100,6,Trevor Brenham,Dallas Life Oak Cliff,99.06,170.1,88.45,174.63,433.18,Single-ply,SBD,M
Boys,100,DQ,Enrique Zamora,Corsicana Mildred,98.88,260.82,,,,Single-ply,SBD,M
Boys,110,1,Eli Crawford,Kerens,105.78,260.82,124.74,251.74,637.3,Single-ply,SBD,M
Boys,110,2,Keenon Ponder,Dallas Life Oak Cliff,109.5,204.12,138.35,213.19,555.65,Single-ply,SBD,M
Boys,110,2,Keenon Ponder,Dallas Life Oak Cliff,109.5,204.12,138.35,213.19,555.65,Single-ply,SBD,M
Boys,110,3,Shelby Wilder,Red Oak Life,109.68,192.78,106.59,188.24,487.61,Single-ply,SBD,M
Boys,125,1,Benito Rivas,Buffalo,120.2,238.14,158.76,219.99,616.89,Single-ply,SBD,M
Boys,125,2,Timothy Collums,Corsicana Mildred,110.86,204.12,136.08,181.44,521.63,Single-ply,SBD,M
Boys,125,3,Dakota Greer,Dawson,112.04,190.51,113.4,154.22,458.13,Single-ply,SBD,M
Boys,125,4,Ben Barlow,Rice,123.2,142.88,56.7,108.86,308.44,Single-ply,SBD,M
Boys,125+,1,Trederek Anglin,Mexia,148.96,226.8,147.42,222.26,596.47,Single-ply,SBD,M
Boys,125+,2,Colton Deal,Red Oak Life,151.41,151.95,106.59,167.83,426.38,Single-ply,SBD,M
Boys,125+,DQ,Daveyon Barnes,Dallas Life Oak Cliff,157.85,201.85,102.06,,,Single-ply,SBD,M
Boys,125+,DQ,Daveyon Barnes,Dallas Life Oak Cliff,157.85,201.85,102.06,,,Single-ply,SBD,M
