Division,WeightClassKg,Place,Name,Team,BodyweightKg,Best3SquatKg,Best3BenchKg,Best3DeadliftKg,TotalKg,Equipment,Event,Sex
Boys,52,1,David Carrasco,Big Lake Reagan County,48.08,124.74,63.5,147.42,335.66,Single-ply,SBD,M
Boys,52,2,Angel Contreras,Comfort,50.89,117.93,70.31,145.15,333.39,Single-ply,SBD,M
Boys,52,3,Robert Zapata,Sonora,51.66,106.59,70.31,149.69,326.59,Single-ply,SBD,M
Boys,52,4,Trey Wachsman,Miles,47.17,97.52,47.63,113.4,258.55,Single-ply,SBD,M
Boys,56,1,Oscar Ortiz,Big Lake Reagan County,55.61,149.69,79.38,154.22,383.29,Single-ply,SBD,M
Boys,56,2,Alejandro Castro,Eldorado,53.43,106.59,68.04,145.15,319.78,Single-ply,SBD,M
Boys,56,3,JR Velasquez,Sonora,55.34,115.67,86.18,111.13,312.98,Single-ply,SBD,M
Boys,56,4,Marcus Perez,Ozona,53.98,95.25,54.43,122.47,272.16,Single-ply,SBD,M
Boys,56,5,Walker Sine,Sonora,55.7,90.72,56.7,111.13,258.55,Single-ply,SBD,M
Boys,60,1,Glenn Crowder,Iraan,59.69,147.42,79.38,188.24,415.04,Single-ply,SBD,M
Boys,60,2,Henry Ramos,Sonora,59.87,154.22,79.38,158.76,392.36,Single-ply,SBD,M
Boys,60,3,Anthony Olivares,Eldorado,56.88,158.76,79.38,149.69,387.82,Single-ply,SBD,M
Boys,60,4,Jaime Ramirez,Rocksprings,57.33,136.08,83.91,140.61,360.61,Single-ply,SBD,M
Boys,60,5,Dylan Vargas,Crane,59.87,142.88,77.11,131.54,351.53,Single-ply,SBD,M
Boys,60,6,Victor Lopez,Iraan,58.79,120.2,77.11,142.88,340.19,Single-ply,SBD,M
Boys,60,7,Brodey Myers,Iraan,58.33,120.2,56.7,142.88,319.78,Single-ply,SBD,M
Boys,60,8,Christian Yruegas,Ozona,59.87,108.86,54.43,124.74,288.03,Single-ply,SBD,M
Boys,67.5,1,Kevin Martinez,Sonora,67.13,204.12,102.06,204.12,510.29,Single-ply,SBD,M
Boys,67.5,2,Anthony Perez,Ozona,65.05,176.9,95.25,199.58,471.74,Single-ply,SBD,M
Boys,67.5,3,Saul Morin,Big Lake Reagan County,67.13,181.44,83.91,190.51,455.86,Single-ply,SBD,M
Boys,67.5,4,Emmanuel Sarabia,Ozona,64.41,167.83,81.65,170.1,419.57,Single-ply,SBD,M
Boys,67.5,5,Mario De Luna,Iraan,61.69,154.22,86.18,172.37,412.77,Single-ply,SBD,M
Boys,67.5,6,Shay Smith,McCamey,66.13,147.42,81.65,181.44,410.5,Single-ply,SBD,M
Boys,67.5,7,Diego Perez #1,Rocksprings,64.05,147.42,88.45,163.29,399.16,Single-ply,SBD,M
Boys,67.5,8,Kraig Cadena,Eldorado,66.04,156.49,74.84,161.03,392.36,Single-ply,SBD,M
Boys,67.5,9,Angel Cordova,Rocksprings,60.78,136.08,83.91,136.08,356.07,Single-ply,SBD,M
Boys,67.5,10,Bryan Salinas,Ozona,66.59,145.15,70.31,129.27,344.73,Single-ply,SBD,M
Boys,67.5,11,Uriel Vazquez,Crane,64.14,127.01,77.11,138.35,342.46,Single-ply,SBD,M
Boys,67.5,12,Blue Moreno,Rocksprings,66.59,127.01,79.38,136.08,342.46,Single-ply,SBD,M
Boys,67.5,13,Jonathan Flores,Miles,62.78,117.93,83.91,136.08,337.93,Single-ply,SBD,M
Boys,67.5,14,Wesley Dutton,Sonora,62.32,111.13,56.7,124.74,292.57,Single-ply,SBD,M
Boys,75,1,John Jurado,Ozona,73.03,254.01,131.54,235.87,621.42,Single-ply,SBD,M
Boys,75,2,Trino Castaneda,Crane,72.94,192.78,117.93,181.44,492.15,Single-ply,SBD,M
Boys,75,3,Angel McKee,McCamey,71.94,192.78,99.79,183.7,476.27,Single-ply,SBD,M
Boys,75,4,Keanu Hernandez,Eldorado,72.21,161.03,102.06,183.7,446.79,Single-ply,SBD,M
Boys,75,5,Jesus DeLuna,Eldorado,68.67,172.37,83.91,174.63,430.91,Single-ply,SBD,M
Boys,75,6,Leroy Garcia,Miles,71.58,136.08,95.25,181.44,412.77,Single-ply,SBD,M
Boys,75,7,Gunner Adams,McCamey,70.22,145.15,81.65,170.1,396.89,Single-ply,SBD,M
Boys,75,8,Blaine Aker,Eldorado,74.84,133.81,61.23,158.76,353.8,Single-ply,SBD,M
Boys,75,9,Joseph Delgado,Sonora,71.21,124.74,77.11,127.01,328.85,Single-ply,SBD,M
Boys,75,10,Carlos Mendoza,Sonora,74.66,102.06,74.84,127.01,303.91,Single-ply,SBD,M
Boys,75,11,Mark Johnson,Miles,73.57,92.99,72.57,122.47,288.03,Single-ply,SBD,M
Boys,75,12,Dylan Taylor,Sonora,69.67,111.13,56.7,113.4,281.23,Single-ply,SBD,M
Boys,75,13,Joe Ramero,Big Lake Reagan County,69.94,88.45,56.7,111.13,256.28,Single-ply,SBD,M
Boys,75,14,Brandon Martinez,Sonora,70.03,83.91,61.23,108.86,254.01,Single-ply,SBD,M
Boys,82.5,1,Jason Faulkner,Comfort,77.02,197.31,138.35,219.99,555.65,Single-ply,SBD,M
Boys,82.5,2,Ralphy Salas,Big Lake Reagan County,79.83,197.31,111.13,185.97,494.42,Single-ply,SBD,M
Boys,82.5,3,Camilo Salcedo,Crane,79.2,179.17,104.33,201.85,485.34,Single-ply,SBD,M
Boys,82.5,4,John Paul Cordova,Rocksprings,81.56,181.44,115.67,181.44,478.54,Single-ply,SBD,M
Boys,82.5,5,Julio Narvaez,Eldorado,78.65,183.7,106.59,181.44,471.74,Single-ply,SBD,M
Boys,82.5,6,Mario Benavidez,Rocksprings,76.2,163.29,90.72,192.78,446.79,Single-ply,SBD,M
Boys,82.5,7,Anthony Carlos,Comfort,79.74,161.03,88.45,197.31,446.79,Single-ply,SBD,M
Boys,82.5,8,Trystan Banks,Miles,80.83,156.49,124.74,165.56,446.79,Single-ply,SBD,M
Boys,82.5,9,Mark Chavez,Sonora,79.74,172.37,102.06,149.69,424.11,Single-ply,SBD,M
Boys,82.5,10,Kodee Warriner,Big Lake Reagan County,77.66,136.08,77.11,170.1,383.29,Single-ply,SBD,M
Boys,82.5,11,Chris Llanez,Miles,77.84,115.67,68.04,115.67,299.37,Single-ply,SBD,M
Boys,82.5,12,Carlos Martinez,Ozona,78.74,97.52,70.31,127.01,294.84,Single-ply,SBD,M
Boys,82.5,DQ,Michael Mungia,Sonora,75.07,127.01,83.91,,,Single-ply,SBD,M
Boys,82.5,DQ,Jose Hernandez,Sonora,75.02,142.88,140.61,,,Single-ply,SBD,M
Boys,82.5,DQ,Rafael Mendoza,Sonora,79.47,,,,,Single-ply,SBD,M
Boys,90,1,Aliq Deleon,McCamey,86.36,233.6,151.95,226.8,612.35,Single-ply,SBD,M
Boys,90,2,Conner Sharp,Comfort,87.54,183.7,115.67,197.31,496.68,Single-ply,SBD,M
Boys,90,3,Nico Ortiz,Big Lake Reagan County,89.63,145.15,88.45,142.88,376.48,Single-ply,SBD,M
Boys,90,4,Luis Salas,Iraan,86,136.08,63.5,136.08,335.66,Single-ply,SBD,M
Boys,100,1,Andrez Flores,Crane,98.88,229.06,124.74,201.85,555.65,Single-ply,SBD,M
Boys,100,2,Trace Hariman,Eldorado,93.17,197.31,115.67,179.17,492.15,Single-ply,SBD,M
Boys,100,3,Bosley Fuentes,Rocksprings,89.99,176.9,102.06,181.44,460.4,Single-ply,SBD,M
Boys,100,4,Nestor Gomez,Crane,94.44,170.1,99.79,163.29,433.18,Single-ply,SBD,M
Boys,100,5,Bailey Graham,Crane,94.08,170.1,92.99,145.15,408.23,Single-ply,SBD,M
Boys,100,6,Michael Muniz,Iraan,93.08,147.42,70.31,163.29,381.02,Single-ply,SBD,M
Boys,100,7,Jerry Cuellar,Eldorado,94.35,117.93,90.72,120.2,328.85,Single-ply,SBD,M
Boys,100,8,Sebi Jimenez,McCamey,93.35,108.86,68.04,106.59,283.5,Single-ply,SBD,M
Boys,100,9,Dylan Mendoza,Ozona,99.7,102.06,65.77,111.13,278.96,Single-ply,SBD,M
Boys,100,DQ,Zac Cook,Miles,93.89,,102.06,170.1,,Single-ply,SBD,M
Boys,100,DQ,Logan McDonald,Sonora,96.07,117.93,,,,Single-ply,SBD,M
Boys,110,1,Angel De Luna,Big Lake Reagan County,108.95,294.84,158.76,260.82,714.41,Single-ply,SBD,M
Boys,110,2,JD Esquivel,Big Lake Reagan County,100.02,276.69,136.08,254.01,666.78,Single-ply,SBD,M
Boys,110,3,James Phillips,Crane,108.86,222.26,154.22,215.46,591.94,Single-ply,SBD,M
Boys,110,4,Tristan Ortiz,Big Lake Reagan County,106.87,244.94,97.52,204.12,546.58,Single-ply,SBD,M
Boys,110,5,Travis Carter,Iraan,100.43,226.8,97.52,197.31,521.63,Single-ply,SBD,M
Boys,110,6,Savion Davis,Comfort,100.79,190.51,117.93,195.04,503.49,Single-ply,SBD,M
Boys,110,7,Luke Arana,McCamey,100.79,190.51,106.59,145.15,442.25,Single-ply,SBD,M
Boys,110,8,Pedro Martinez,Miles,103.6,136.08,102.06,204.12,442.25,Single-ply,SBD,M
Boys,110,9,Hector Diaz,Crane,102.87,167.83,92.99,167.83,428.64,Single-ply,SBD,M
Boys,110,10,Jason Carillo,Rocksprings,107.68,142.88,97.52,154.22,394.63,Single-ply,SBD,M
Boys,110,11,Ivan Castilla,Iraan,104.33,147.42,86.18,149.69,383.29,Single-ply,SBD,M
Boys,110,DQ,Tanner Beyer,Miles,107.95,,,151.95,,Single-ply,SBD,M
Boys,125,1,Julian Guerra,Sonora,118.75,181.44,151.95,185.97,519.36,Single-ply,SBD,M
Boys,125,2,Hagen Leach,Crane,116.57,181.44,127.01,176.9,485.34,Single-ply,SBD,M
Boys,125,3,Alexis Rosas,Crane,112.49,174.63,102.06,149.69,426.38,Single-ply,SBD,M
Boys,125,DQ,Tahjae Collins,Crane,112.4,181.44,81.65,,,Single-ply,SBD,M
Boys,125+,1,Ernie Veloz,Big Lake Reagan County,146.69,288.03,154.22,249.48,691.73,Single-ply,SBD,M
Boys,125+,2,Noe Estrada,Sonora,140.16,181.44,104.33,190.51,476.27,Single-ply,SBD,M
Boys,125+,3,Joseph Absher,Sonora,157.12,188.24,83.91,174.63,446.79,Single-ply,SBD,M
Boys,125+,4,Ray Kimbrell,Sonora,140.8,158.76,102.06,181.44,442.25,Single-ply,SBD,M
Boys,125+,DQ,Greg Dehoyos,Ozona,133.17,,95.25,158.76,,Single-ply,SBD,M
