Place,Name,State,WeightClassKg,BodyweightKg,Age,Best3SquatKg,Best3BenchKg,Best3DeadliftKg,TotalKg,Sex,Division,Equipment,Squat4Kg,Deadlift4Kg,Event
1,Kayla Richey,WA,75,72.6,15,102.5,55,132.5,290,F,Juniors 13-15,Raw,,,SBD
1,Cyndi Terry,WA,56,55.6,27,105,47.5,130,282.5,F,Open,Raw,,,SBD
1,Kecia Aldridge,WA,60,57.1,44,82.5,55,135,272.5,F,Open,Raw,,,SBD
1,Kristyn Whisman,WA,67.5,65.1,32,122.5,65,147.5,335,F,Open,Raw,,,SBD
2,Cassie Long,WA,67.5,66.7,29,85,55,95,235,F,Open,Raw,,,SBD
1,Kayla Richey,WA,75,72.6,15,102.5,55,132.5,290,F,Juniors 13-15,Raw,,,SBD
1,Cassandra Cartwright,WA,75,71.3,28,85,47.5,105,237.5,F,Open,Raw,,,SBD
1,Sopheap Thach,WA,82.5,80.8,27,117,57.5,140,314.5,F,Open,Raw,,,SBD
1,Rachael Seath,WA,90,88,26,112.5,67.5,162.5,342.5,F,Open,Raw,,,SBD
1,Natasha Keeney,WA,90+,107,26,112.5,60,137.5,310,F,Open,Raw,115,,SBD
1,Rainee Harder,WA,56,51.3,35,45,30,82.5,157.5,F,Submasters 35-39,Raw,,,SBD
1,Mary Jurovcik,WA,60,59.6,37,62.5,40,97.5,200,F,Submasters 35-39,Raw,,,SBD
1,Kristina Salazar,WA,82.5,79.8,36,122.5,95,142.5,360,F,Submasters 35-39,Raw,,,SBD
2,Alexandra Seal,WA,82.5,76.8,39,130,90,137.5,357.5,F,Submasters 35-39,Raw,,,SBD
1,Kecia Aldridge,WA,60,57.1,44,82.5,55,135,272.5,F,Masters 40-44,Raw,,,SBD
DQ,Lori Yates,WA,90+,123.3,52,160,85,-185,,F,Masters 50-54,Raw,,,SBD
1,Brandon Peaslee,WA,67.5,66.7,16,130,87.5,162.5,380,M,Juniors 16-17,Raw,,,SBD
1,Eagle Lucas,WA,75,74.8,21,185,120,187.5,492.5,M,Juniors 20-23,Raw,,,SBD
1,Avtar Singh,WA,90,90,17,177.5,97.5,215,490,M,Juniors 16-17,Raw,,,SBD
1,Ruben Ramirez,WA,90,89.4,21,282.5,152.5,287.5,722.5,M,Juniors 20-23,Raw,,,SBD
1,Alexander Johnson,WA,110,107.5,15,95,52.5,120,267.5,M,Juniors 13-15,Raw,,,SBD
1,Brandon Peaslee,WA,67.5,66.7,16,130,87.5,162.5,380,M,Open,Raw,,,SBD
1,Joseph Beck,OR,82.5,78.1,44,175,105,177.5,457.5,M,Open,Raw,,,SBD
2,Russell Williams,WA,82.5,82.1,75,107.5,67.5,142.5,317.5,M,Open,Raw,,,SBD
3,Keegan Montgomery,WA,82.5,79.4,15,92.5,77.5,140,310,M,Open,Raw,,,SBD
1,Avtar Singh,WA,90,87.55,17,177.5,97.5,215,490,M,Open,Raw,,,SBD
2,Ryan Bond,WA,90,86.6,28,207.5,142.5,240,590,M,Open,Raw,,,SBD
3,Bill Dove,WA,90,87.9,75,115,105,190,410,M,Open,Raw,,,SBD
DQ,Jeremy Sankwich,WA,90,87.3,31,-150,,,,M,Open,Raw,,,SBD
1,Riley Wilson,WA,100,98,24,190,147.5,257.5,595,M,Open,Raw,,,SBD
2,Kevin Nguyen,WA,100,99.8,28,190,155,227.5,572.5,M,Open,Raw,,,SBD
3,DJ Hutley,WA,100,98.7,47,167.5,140,205,512.5,M,Open,Raw,,,SBD
1,Bradley Williams,WA,125,117.4,29,240,160,307.5,707.5,M,Open,Raw,,,SBD
2,Zack Underwood,WA,125,112.4,15,235,150,272,657,M,Open,Raw,,,SBD
3,Brandon Barber,WA,125,120.34,26,235,150,272,657,M,Open,Raw,,,SBD
1,Peter Carstensen,WA,140,138.4,32,227.5,112.5,260,600,M,Open,Raw,,,SBD
2,Cameron Garlock,WA,140,130.6,27,195,125,215,535,M,Open,Raw,,,SBD
1,Jon Matisons,WA,90,89.8,39,197.5,147.5,217.5,562.5,M,Submasters 35-39,Raw,,,SBD
1,Robert Lane,WA,82.5,81,45,195,145,250,590,M,Masters 45-49,Raw,,,SBD
1,Jeff Hahn,OR,82.5,82.1,62,150,112.5,187.5,450,M,Masters 60-64,Raw,,,SBD
1,Bill Dove,WA,90,87.9,75,115,105,190,410,M,Masters 75-79,Raw,,,SBD
1,David Gowenlock,WA,100,97.1,60,85,65,125,275,M,Masters 60-64,Raw,,,SBD
1,Mario Alvarez,WA,140+,160.6,42,222.5,167.5,220,610,M,Masters 40-44,Raw,,,SBD
1,Darren Johnson,WA,140+,154.6,46,227.5,182.5,240,650,M,Masters 45-49,Raw,,,SBD
DQ,Darren Garret,WA,140+,156.9,46,205,-140,,,M,Masters 45-49,Raw,,,SBD
1,Dulee Rodriguez,WA,90,89.9,16,115,62.5,117.5,295,M,Juniors 16-17,Wraps,,120,SBD
1,John Mitcham,WA,90,89.8,29,230,160,285,675,M,Open,Wraps,,,SBD
1,Tina Miller,WA,75,72.2,46,,77.5,,77.5,F,Open,Raw,,,B
1,Tina Miller,WA,75,72.2,46,,77.5,,77.5,F,Masters 45-49,Raw,,,B
1,Tim Williams,WA,82.5,78.1,23,,85,,85,M,Open,Raw,,,B
2,Ron White,WA,82.5,81.3,74,,82.5,,82.5,M,Open,Raw,,,B
1,Gordon Mauhl,WA,90,89.8,73,,60,,60,M,Open,Raw,,,B
1,Jesse Littleton,WA,100,93.8,25,,160,,160,M,Open,Raw,,,B
1,John Sangder,WA,110,108,46,,165,,165,M,Open,Raw,,,B
2,John Babbitt,WA,110,109,44,,120,,120,M,Open,Raw,,,B
3,Aman Berry,WA,110,103,28,,90,,90,M,Open,Raw,,,B
1,Scott Amell,WA,140,136.4,46,,212.5,,212.5,M,Open,Raw,,,B
1,Ron White,WA,82.5,81.3,74,,82.5,,82.5,M,Masters 70-74,Raw,,,B
1,John Sangder,WA,110,108,46,,165,,165,M,Masters 45-49,Raw,,,B
1,Mark Greenleaf,WA,110,108.95,60,,152.5,,152.5,M,Masters 60-64,Raw,,,B
1,Scott Amell,WA,140,136.4,46,,212.5,,212.5,M,Masters 45-49,Raw,,,B
1,Stephanie Moen,WA,75,73.7,33,,,160,160,F,Open,Raw,,,D
1,Dakota Thomas,WA,110,108,23,,,320,320,M,Juniors 20-23,Raw,,,D
1,Ron White,WA,82.5,81.3,74,,,80,80,M,Open,Raw,,,D
1,William Swantek,WA,90,89.8,69,,,185,185,M,Open,Raw,,,D
2,Craig Buck,WA,90,85.7,63,,,145,145,M,Open,Raw,,,D
1,Jesse Littleton,WA,100,93.8,25,,,247.5,247.5,M,Open,Raw,,,D
1,Aman Berry,WA,110,103,28,,,160,160,M,Open,Raw,,,D
1,Zack Underwood,WA,125,112.4,15,,,182.5,182.5,M,Open,Raw,,,D
1,Craig Buck,WA,90,85.7,63,,,145,145,M,Masters 60-64,Raw,,,D
1,Ron White,WA,82.5,81.3,74,,,80,80,M,Masters 70-74,Raw,,,D
