Name,Sex,Equipment,BodyweightKg,WeightClassKg,Division,Squat1Kg,Squat2Kg,Squat3Kg,Best3SquatKg,Bench1Kg,Bench2Kg,Bench3Kg,Best3BenchKg,Deadlift1Kg,Deadlift2Kg,Deadlift3Kg,Best3DeadliftKg,TotalKg,Place,Event
Jo Whiteley,F,Raw,86.4,84+,Masters,70,80,-90,80,40,45,47.5,47.5,100,110,120,120,247.5,3,SBD
Tom Martin #1,M,Raw,93,93,Senior,,,,250,,,,170,,,,340,760,1,SBD
