Division,WeightClassKg,Place,Name,Team,BodyweightKg,Best3SquatKg,Best3BenchKg,Best3DeadliftKg,TotalKg,Equipment,Event,Sex
Boys,52,1,Michael Guerrero,Georgetown East View,51.44,140.61,74.84,147.42,362.87,Single-ply,SBD,M
Boys,52,2,Payton Melchor,Liberty Hill,48.08,106.59,45.36,113.4,265.35,Single-ply,SBD,M
Boys,52,3,Hayden Hughes,Georgetown,51.26,102.06,52.16,83.91,238.14,Single-ply,SBD,M
Boys,52,DQ,DJ Walker,Georgetown East View,51.71,,,,,Single-ply,SBD,M
Boys,56,DQ,Kaden Harris,Georgetown East View,55.79,,,,,Single-ply,SBD,M
Boys,60,1,Fernando Maldonado,Smithville,59.24,156.49,104.33,188.24,449.06,Single-ply,SBD,M
Boys,60,2,Michael Marullo,Georgetown East View,57.52,138.35,86.18,129.27,353.8,Single-ply,SBD,M
Boys,60,3,Jack Schneeman,Georgetown,56.79,92.99,68.04,124.74,285.76,Single-ply,SBD,M
Boys,60,4,Nathaniel McMillan,Georgetown,59.42,86.18,65.77,122.47,274.42,Single-ply,SBD,M
Boys,67.5,1,Nathaniel Olvera,Smithville,65.86,195.04,108.86,206.38,510.29,Single-ply,SBD,M
Boys,67.5,2,Eduardo Perez,Georgetown,66.95,179.17,90.72,185.97,455.86,Single-ply,SBD,M
Boys,67.5,3,Christopher Brenham,Georgetown,66.22,158.76,86.18,158.76,403.7,Single-ply,SBD,M
Boys,67.5,4,Trey Motyka,Smithville,63.14,145.15,74.84,149.69,369.68,Single-ply,SBD,M
Boys,67.5,5,Chance McGuire,Georgetown,62.78,120.2,68.04,142.88,331.12,Single-ply,SBD,M
Boys,67.5,6,Joseph Echavarria,Georgetown,60.96,83.91,63.5,113.4,260.82,Single-ply,SBD,M
Boys,67.5,7,Graham Sherill,Smithville,61.05,79.38,45.36,88.45,213.19,Single-ply,SBD,M
Boys,67.5,DQ,Ryan Wall,Georgetown East View,67.13,,,,,Single-ply,SBD,M
Boys,67.5,DQ,Daniel Mireles,Georgetown East View,67.13,,,,,Single-ply,SBD,M
Boys,75,1,Andrew Wyatt,Smithville,72.67,172.37,122.47,183.7,478.54,Single-ply,SBD,M
Boys,75,2,Javon Burrell,Georgetown East View,71.12,176.9,86.18,172.37,435.45,Single-ply,SBD,M
Boys,75,3,Colton Harris,Georgetown East View,74.84,142.88,86.18,151.95,381.02,Single-ply,SBD,M
Boys,75,4,Francisco Santana,Georgetown East View,74.12,127.01,70.31,124.74,322.05,Single-ply,SBD,M
Boys,75,5,James Williams,Smithville,68.76,90.72,70.31,102.06,263.08,Single-ply,SBD,M
Boys,82.5,1,Matt May,Georgetown,81.28,165.56,104.33,183.7,453.59,Single-ply,SBD,M
Boys,82.5,2,Landry Bolin,LIBERTY Hill,75.3,161.03,97.52,183.7,442.25,Single-ply,SBD,M
Boys,82.5,3,Walker Fain,Georgetown,82.01,165.56,88.45,156.49,410.5,Single-ply,SBD,M
Boys,82.5,4,Erik Anderson #3,Georgetown,76.38,158.76,97.52,136.08,392.36,Single-ply,SBD,M
Boys,82.5,5,Ben Rickerson,Georgetown,76.11,136.08,90.72,142.88,369.68,Single-ply,SBD,M
Boys,82.5,6,Jamie Sanchez,Georgetown East View,81.19,136.08,83.91,142.88,362.87,Single-ply,SBD,M
Boys,82.5,7,Nick Corona,Georgetown,81.28,113.4,83.91,149.69,347,Single-ply,SBD,M
Boys,82.5,8,Andrew Newman,Georgetown,75.02,102.06,97.52,142.88,342.46,Single-ply,SBD,M
Boys,82.5,9,Tyler Solomon,Georgetown,81.19,129.27,83.91,124.74,337.93,Single-ply,SBD,M
Boys,82.5,DQ,Sheldon Allamon,Georgetown,82.1,83.91,68.04,102.06,,Single-ply,SBD,M
Boys,82.5,DQ,Lakota Lawrence,LIBERTY Hill,80.2,154.22,102.06,156.49,,Single-ply,SBD,M
Boys,90,1,Austin Naiser,Georgetown East View,84.64,190.51,133.81,195.04,519.36,Single-ply,SBD,M
Boys,90,2,Kody Knowles,Liberty Hill,87.36,190.51,106.59,210.92,508.02,Single-ply,SBD,M
Boys,90,3,Frank Trevino,Smithville,82.64,156.49,99.79,176.9,433.18,Single-ply,SBD,M
Boys,90,4,Kody Markert,Georgetown,82.83,142.88,97.52,161.03,401.43,Single-ply,SBD,M
Boys,90,5,Andrew Larsen,Georgetown,85.46,133.81,92.99,165.56,392.36,Single-ply,SBD,M
Boys,90,6,Frank Durante,Georgetown,84.19,145.15,95.25,149.69,390.09,Single-ply,SBD,M
Boys,90,DQ,Andrew Becker,LIBERTY Hill,89.63,174.63,140.61,190.51,,Single-ply,SBD,M
Boys,90,DQ,Chris Lewis,Smithville,88.63,247.21,115.67,215.46,,Single-ply,SBD,M
Boys,100,1,David Mata,Georgetown,97.34,215.46,108.86,201.85,526.17,Single-ply,SBD,M
Boys,100,2,Brandon Salazar,Georgetown East View,93.53,185.97,138.35,199.58,523.9,Single-ply,SBD,M
Boys,100,3,Jonathan Willett,Georgetown East View,93.71,204.12,124.74,192.78,521.63,Single-ply,SBD,M
Boys,100,4,Nick Furr,Georgetown,96.52,142.88,90.72,188.24,421.84,Single-ply,SBD,M
Boys,100,5,Harrison Schuler,Georgetown,98.61,165.56,83.91,172.37,421.84,Single-ply,SBD,M
Boys,100,DQ,Ryan Starrit,Georgetown,99.79,133.81,72.57,136.08,,Single-ply,SBD,M
Boys,110,1,Hunter Creasey,Georgetown,99.97,226.8,127.01,240.4,594.21,Single-ply,SBD,M
Boys,110,2,Kyle Huppee,LIBERTY Hill,103.78,215.46,136.08,215.46,566.99,Single-ply,SBD,M
Boys,110,3,Dameion Cavazos,Georgetown,106.32,224.53,142.88,188.24,555.65,Single-ply,SBD,M
Boys,110,4,Hunter Bohanan,Georgetown,106.68,204.12,142.88,183.7,530.7,Single-ply,SBD,M
Boys,110,5,Tyler Noles,Georgetown,109.68,181.44,113.4,183.7,478.54,Single-ply,SBD,M
Boys,110,6,Jameson White,Georgetown,108.82,158.76,83.91,183.7,426.38,Single-ply,SBD,M
Boys,110,DQ,Leo Ramirez,Georgetown East View,109.77,,,,,Single-ply,SBD,M
Boys,110,DQ,Joshua Lapuszynski,LIBERTY Hill,107.23,163.29,81.65,142.88,,Single-ply,SBD,M
Boys,125,1,Allan Edelmon,Georgetown East View,124.69,233.6,145.15,224.53,603.28,Single-ply,SBD,M
Boys,125,2,Grant Deltz,LIBERTY Hill,120.2,213.19,117.93,161.03,492.15,Single-ply,SBD,M
Boys,125,3,Jacoby Coleman,Georgetown,117.03,170.1,106.59,181.44,458.13,Single-ply,SBD,M
Boys,125,4,Talon Zaro,Georgetown,112.67,142.88,90.72,165.56,399.16,Single-ply,SBD,M
Boys,125,DQ,Chase Travis,Georgetown,122.11,179.17,102.06,149.69,,Single-ply,SBD,M
Boys,125,DQ,Cruz Salazar,Georgetown East View,109.86,174.63,108.86,165.56,,Single-ply,SBD,M
Boys,125+,1,Anthony Rishton,Georgetown,144.88,240.4,138.35,213.19,591.94,Single-ply,SBD,M
Boys,125+,2,Jared Tippie,Liberty Hill,125.01,206.38,83.91,195.04,485.34,Single-ply,SBD,M
