Place,Name,BirthYear,Country,BodyweightKg,Bench1Kg,Bench2Kg,Bench3Kg,Best3BenchKg,TotalKg,WeightClassKg,Division,Event,Sex,Equipment
1,Toshihiko Noda,1979,Japan,58.7,195,202.5,210.5,210.5,210.5,59,Open,B,M,Single-ply
2,Abdulkarim Karaman,1994,Kazakhstan,58.7,-185,190,-205,190,190,59,Open,B,M,Single-ply
3,Igor Garashchenko,1988,Ukraine,59,-190,190,,190,190,59,Open,B,M,Single-ply
4,Oleg Smirnov,1990,Russia,57.75,185,-190,-190,185,185,59,Open,B,M,Single-ply
5,Yernur Khailyamov,1994,Kazakhstan,58.35,185,-195,-200,185,185,59,Open,B,M,Single-ply
6,Fredrik Eskil Myrvang,1990,Norway,56.7,167.5,175,-180,175,175,59,Open,B,M,Single-ply
7,Dariusz Wszoła,1978,Poland,58.65,172.5,-180,-180,172.5,172.5,59,Open,B,M,Single-ply
8,Jesse Johnson,1990,UK,58.6,110,120,-130,120,120,59,Open,B,M,Single-ply
1,Masashi Fukuda,1984,Japan,65.65,235,241.5,248,248,248,66,Open,B,M,Single-ply
2,Yan Urusov,1989,Russia,65.55,225,235,-247.5,235,235,66,Open,B,M,Single-ply
3,Yeldos Yermakhanov,1990,Kazakhstan,65.8,212.5,220,-237.5,220,220,66,Open,B,M,Single-ply
4,Andreas Frasl,1983,Austria,65.5,-210,210,-235,210,210,66,Open,B,M,Single-ply
1,Daiki Kodama,1979,Japan,72.55,250,265,275,275,275,74,Open,B,M,Single-ply
2,Oleg Butenko,1983,Kazakhstan,73.2,-255,-255,255,255,255,74,Open,B,M,Single-ply
3,Amit Selberg,1976,Sweden,73.4,-245,245,-257.5,245,245,74,Open,B,M,Single-ply
4,Adam Balawejder,1981,Poland,73.9,225,-235,235,235,235,74,Open,B,M,Single-ply
5,Renars Dronga,1988,Latvia,73.35,230,-242.5,-245,230,230,74,Open,B,M,Single-ply
6,Yuki Sato,1983,Japan,73.55,215,-225,-232.5,215,215,74,Open,B,M,Single-ply
DQ,Bayarbaatar Batgerel,1991,Mongolia,73.6,-240,-245,-247.5,,,74,Open,B,M,Single-ply
1,Goki Omuro,1993,Japan,82.6,290,302.5,-310.5,302.5,302.5,83,Open,B,M,Single-ply
2,Sergey Kniazev,1976,Russia,82.25,300,-305,-307.5,300,300,83,Open,B,M,Single-ply
3,Askar Shokhanov,1983,Kazakhstan,82.85,285,292.5,-302.5,292.5,292.5,83,Open,B,M,Single-ply
4,Yuki Fukushima,1986,Japan,81.75,-282.5,282.5,-302.5,282.5,282.5,83,Open,B,M,Single-ply
5,Maxim Beloborodov,1983,Russia,82,275,-285,-292.5,275,275,83,Open,B,M,Single-ply
6,Mads Friche,1982,Denmark,81.9,242.5,252.5,-260,252.5,252.5,83,Open,B,M,Single-ply
7,Kim Beck-Gundersen,1985,Norway,82,245,250,-267.5,250,250,83,Open,B,M,Single-ply
8,Jozef Sotolar,1980,Slovakia,82.55,235,-245,245,245,245,83,Open,B,M,Single-ply
9,Raik Guenterberg,1989,Germany,82.6,242.5,-250,-255,242.5,242.5,83,Open,B,M,Single-ply
10,Gansukh Batsukh,1988,Mongolia,82.7,230,240,-250,240,240,83,Open,B,M,Single-ply
DQ,Joakim Wång,1983,Sweden,81.9,-245,-245,-247.5,,,83,Open,B,M,Single-ply
DQ,Rafal Zalewski,1983,Poland,82.65,-270,-270,-270,,,83,Open,B,M,Single-ply
DQ,Luke Hanifen,1981,USA,82.8,-247.5,-247.5,-247.5,,,83,Open,B,M,Single-ply
1,Eduard Tebenkov,1990,Russia,92.3,-317.5,317.5,330.5,330.5,330.5,93,Open,B,M,Single-ply
2,Adam Mamola,1977,USA,92.55,312.5,-320,-320.5,312.5,312.5,93,Open,B,M,Single-ply
3,Naoki Hasegawa,1992,Japan,92.3,307.5,-312.5,-320,307.5,307.5,93,Open,B,M,Single-ply
4,Jan Wegiera,1965,Poland,92.7,-305,305,-310,305,305,93,Open,B,M,Single-ply
5,Andrii Krymov,1985,Ukraine,92.9,305,-312.5,-315,305,305,93,Open,B,M,Single-ply
6,Roger Navarsete,1990,Norway,92.4,285,-292.5,-292.5,285,285,93,Open,B,M,Single-ply
7,Kitsui Masahito,1978,Hong Kong,92.25,260,275,-280,275,275,93,Open,B,M,Single-ply
8,Galsaikhan Myagmarsuren,1988,Mongolia,92.4,227.5,-237.5,240,240,240,93,Open,B,M,Single-ply
9,Zdeněk Tuháček,1986,Czechia,92.6,220,-232.5,-232.5,220,220,93,Open,B,M,Single-ply
DQ,Mariusz Hintzke,1994,Poland,92.25,-305,-310,-315,,,93,Open,B,M,Single-ply
DQ,Tommy Navarsete,1978,Norway,92.6,-275,-275,-277.5,,,93,Open,B,M,Single-ply
1,Vladimir Grishaev,1981,Russia,103.75,320,327.5,332.5,332.5,332.5,105,Open,B,M,Single-ply
2,Tumenjargal Dashzegve,1987,Mongolia,103,-312.5,315,330,330,330,105,Open,B,M,Single-ply
3,Volodymyr Bettyar,1984,Ukraine,104.8,315,322.5,330,330,330,105,Open,B,M,Single-ply
4,Arslan Suyunshaliyev,1989,Kazakhstan,104.2,-317.5,-317.5,322.5,322.5,322.5,105,Open,B,M,Single-ply
5,Stefan Jamroz,1980,Sweden,104.7,-322.5,322.5,-325,322.5,322.5,105,Open,B,M,Single-ply
6,Milan Selinger,1984,Czechia,104.7,275,-282.5,-287.5,275,275,105,Open,B,M,Single-ply
7,Marcin Karkula,1987,Poland,99.6,260,270,-275,270,270,105,Open,B,M,Single-ply
8,Frank Barthel,1980,Germany,104.05,-270,-270,270,270,270,105,Open,B,M,Single-ply
9,George Seeger,1992,UK,100.95,190,200,-202.5,200,200,105,Open,B,M,Single-ply
DQ,Jakub Grabowski,1990,Poland,94.4,-285,-285,,,,105,Open,B,M,Single-ply
DQ,Timothy Stroshine,1978,USA,95.65,-282.5,-282.5,-282.5,,,105,Open,B,M,Single-ply
DQ,Luis Jaimes,1989,USA,103.85,-292.5,-292.5,-292.5,,,105,Open,B,M,Single-ply
DQ,Masahiko Kassai,1971,Japan,104.2,-315,-315,-325,,,105,Open,B,M,Single-ply
DQ,Aliaksei Stasevich,1986,Belarus,104.3,-317.5,-317.5,-322.5,,,105,Open,B,M,Single-ply
1,Altangerel Bujinlkham,1976,Mongolia,119.4,345,-352.5,352.5,352.5,352.5,120,Open,B,M,Single-ply
2,Chimedtseren Bataa,1981,Mongolia,118.45,337.5,347.5,-352.5,347.5,347.5,120,Open,B,M,Single-ply
3,Brady Stewart,1982,USA,119.55,335,340,-350,340,340,120,Open,B,M,Single-ply
4,Sergey Selezen,1980,Russia,119.75,330,340,-350,340,340,120,Open,B,M,Single-ply
5,Per Nilsson,1974,Sweden,118.3,300,332.5,-347.5,332.5,332.5,120,Open,B,M,Single-ply
6,Kaido Leesmann,1969,Estonia,119,275,285,-290,285,285,120,Open,B,M,Single-ply
7,Duncan Sharp,1983,UK,116.6,-260,265,-280,265,265,120,Open,B,M,Single-ply
8,Saulius Skikas,1988,Lithuania,117,225,232.5,237.5,237.5,237.5,120,Open,B,M,Single-ply
DQ,Per Marius Hole,1989,Norway,118.3,-330,-330,-340,,,120,Open,B,M,Single-ply
1,Ove Lehto,1972,Finland,155.3,352.5,357.5,385,385,385,120+,Open,B,M,Single-ply
2,Jonathan Leo,1977,USA,161,385,-410.5,-410.5,385,385,120+,Open,B,M,Single-ply
3,Kenneth Sandvik,1975,Finland,140.95,347.5,352.5,-357.5,352.5,352.5,120+,Open,B,M,Single-ply
4,Fridrich Matejík,1983,Slovakia,133,305,325,330,330,330,120+,Open,B,M,Single-ply
5,Michael Zawilinski,1980,USA,183,-325,325,-355,325,325,120+,Open,B,M,Single-ply
6,Niklas Pettersson,1991,Sweden,150.7,-322.5,322.5,-357.5,322.5,322.5,120+,Open,B,M,Single-ply
7,Bohdan Hrytsan,1981,Ukraine,149.9,292.5,307.5,-322.5,307.5,307.5,120+,Open,B,M,Single-ply
DQ,Alastair McColl,1981,Norway,142.1,-347.5,-352.5,-357.5,,,120+,Open,B,M,Single-ply
DQ,Milan Špingl,1980,Czechia,143.25,-310,-310,-310,,,120+,Open,B,M,Single-ply
1,Sergei Vasilyev,1999,Russia,52.6,110,120,-130,120,120,53,Sub-Juniors,B,M,Single-ply
2,Albert Stankevich,2002,Belarus,52.7,72.5,77.5,-80,77.5,77.5,53,Sub-Juniors,B,M,Single-ply
1,Natan Balogh,2000,Hungary,58.35,140,145,155,155,155,59,Sub-Juniors,B,M,Single-ply
2,Zhanassyl Khabidulla,1999,Kazakhstan,58.3,-140,140,152.5,152.5,152.5,59,Sub-Juniors,B,M,Single-ply
3,Nyrzhan Zhazymov,2000,Kazakhstan,57.9,135,140,150,150,150,59,Sub-Juniors,B,M,Single-ply
4,Matthew Longoria,2000,USA,58.2,127.5,137.5,147.5,147.5,147.5,59,Sub-Juniors,B,M,Single-ply
1,Alexander Grigoryev,1999,Russia,65.4,172.5,182.5,186,186,186,66,Sub-Juniors,B,M,Single-ply
2,Vasilii Kalinin,1999,Russia,64.8,160,165,172.5,172.5,172.5,66,Sub-Juniors,B,M,Single-ply
3,Aidar Bauyrzhan,1999,Kazakhstan,65,162.5,-167.5,-175,162.5,162.5,66,Sub-Juniors,B,M,Single-ply
4,Sukhbat Sukhbaatar,1999,Mongolia,65.7,150,162.5,-172.5,162.5,162.5,66,Sub-Juniors,B,M,Single-ply
1,Adlet Anuarov,1999,Kazakhstan,73.15,185,192.5,195,195,195,74,Sub-Juniors,B,M,Single-ply
2,Pavel Korolev,2000,Russia,72.5,170,180,192.5,192.5,192.5,74,Sub-Juniors,B,M,Single-ply
3,Daniyar Shaukatov,2000,Kazakhstan,72.2,110,-140,140,140,140,74,Sub-Juniors,B,M,Single-ply
1,Anton Vykhtar,1999,Russia,74.3,177.5,187.5,195,195,195,83,Sub-Juniors,B,M,Single-ply
2,Sergei Konovnitcin,1999,Russia,79.4,160,-167.5,167.5,167.5,167.5,83,Sub-Juniors,B,M,Single-ply
3,Mindaugas Grobas,1999,Lithuania,76.85,-145,145,152.5,152.5,152.5,83,Sub-Juniors,B,M,Single-ply
4,Marek Majek,1999,Poland,80.6,140,-147.5,150,150,150,83,Sub-Juniors,B,M,Single-ply
5,Ignas Karaliunas,1999,Lithuania,76.95,140,147.5,-152.5,147.5,147.5,83,Sub-Juniors,B,M,Single-ply
1,Kestutis Siauciunas,1999,Lithuania,92.2,165,170,175,175,175,93,Sub-Juniors,B,M,Single-ply
2,Gregor Annuk,1999,Estonia,92.35,150,-167.5,-172.5,150,150,93,Sub-Juniors,B,M,Single-ply
3,Murat Israilov,2000,Kazakhstan,83.95,110,125,-150,125,125,93,Sub-Juniors,B,M,Single-ply
1,Sergei Volodin,1999,Russia,101.4,180,195,205,205,205,105,Sub-Juniors,B,M,Single-ply
1,Mikhail Grigoryev,1999,Russia,117.8,170,177.5,185,185,185,120,Sub-Juniors,B,M,Single-ply
2,Mihkel Ruut,1999,Estonia,105.1,162.5,170,-177.5,170,170,120,Sub-Juniors,B,M,Single-ply
3,Bartosz Zajac,1999,Poland,105.85,-160,160,-172.5,160,160,120,Sub-Juniors,B,M,Single-ply
4,Albert Ruta,2002,Poland,117.35,125,130,-135,130,130,120,Sub-Juniors,B,M,Single-ply
1,Ryuki Fujimoto,2000,Japan,133.7,-310,310,-400,310,310,120+,Sub-Juniors,B,M,Single-ply
2,Nikita Leskovets,1999,Russia,134.65,250,-260,260,260,260,120+,Sub-Juniors,B,M,Single-ply
3,Vilius Siauciunas,1999,Lithuania,122,165,170,180,180,180,120+,Sub-Juniors,B,M,Single-ply
1,Georgii Klimenko,1995,Russia,52.8,150,160,167.5,167.5,167.5,53,Juniors,B,M,Single-ply
2,Egidijus Valčiukas,1998,Lithuania,52.85,152.5,-162.5,-162.5,152.5,152.5,53,Juniors,B,M,Single-ply
3,Sultan Bexeiit,1998,Kazakhstan,52.85,140,-150,-152.5,140,140,53,Juniors,B,M,Single-ply
1,Motoki Murata,1997,Japan,58.55,190.5,200,-210.5,200,200,59,Juniors,B,M,Single-ply
2,Abdulaziz Sait,1995,Kazakhstan,57.45,120,150,-165,150,150,59,Juniors,B,M,Single-ply
3,Tadas Zadeikis,1998,Lithuania,57.2,85,95,107.5,107.5,107.5,59,Juniors,B,M,Single-ply
1,Haruya Okada,1996,Japan,65.6,-210,210,-225.5,210,210,66,Juniors,B,M,Single-ply
2,Andrzej Paszko,1994,Poland,66,182.5,197.5,205,205,205,66,Juniors,B,M,Single-ply
3,Alisher Makhmudov,1995,Kazakhstan,64.02,195,202.5,-210,202.5,202.5,66,Juniors,B,M,Single-ply
4,Kuanyshbay Tulegenov,1998,Kazakhstan,65.35,195,202.5,-207.5,202.5,202.5,66,Juniors,B,M,Single-ply
5,Ruslan Ruzimuradov,1998,Ukraine,65.8,182.5,192.5,-205,192.5,192.5,66,Juniors,B,M,Single-ply
6,Yuki Kajiyama,1995,Japan,61.7,120,-140,140,140,140,66,Juniors,B,M,Single-ply
1,Yosuke Kikuchi,1995,Japan,72.9,220,227.5,-246,227.5,227.5,74,Juniors,B,M,Single-ply
2,Alexander Eriksson,1994,Sweden,73.95,217.5,-222.5,222.5,222.5,222.5,74,Juniors,B,M,Single-ply
3,Zhavlan Shaukatov,1998,Kazakhstan,73.5,210,220,-225,220,220,74,Juniors,B,M,Single-ply
4,Sergejs Timofejevs,1994,Latvia,73.65,215,-220,-222.5,215,215,74,Juniors,B,M,Single-ply
5,Valery Vorotilin,1995,Russia,73.05,210,-220,-222.5,210,210,74,Juniors,B,M,Single-ply
6,Albertas Motiecius,1994,Lithuania,72.4,172.5,182.5,-192.5,182.5,182.5,74,Juniors,B,M,Single-ply
DQ,Takahiro Ono,1994,Japan,72.4,-225,-227.5,-227.5,,,74,Juniors,B,M,Single-ply
1,Tomohisa Murano,1994,Japan,81.6,220,240,267.5,267.5,267.5,83,Juniors,B,M,Single-ply
2,Kostiantyn Musiienko,1997,Ukraine,82.15,240,-245,-250,240,240,83,Juniors,B,M,Single-ply
3,Klaudijus Malevskis,1996,Lithuania,81.95,215,222.5,225,225,225,83,Juniors,B,M,Single-ply
4,Yuki Yoshitomo,1995,Japan,79.85,195,-205,222.5,222.5,222.5,83,Juniors,B,M,Single-ply
5,Andriy Bilyk,1998,Ukraine,82.15,190,197.5,207.5,207.5,207.5,83,Juniors,B,M,Single-ply
1,Artur Zalotov,1998,Ukraine,92.3,257.5,265,272.5,272.5,272.5,93,Juniors,B,M,Single-ply
2,Easton Schuster,1996,USA,92.6,-260,260,-267.5,260,260,93,Juniors,B,M,Single-ply
3,Andrew Reiss,1994,USA,91.65,235,240,-265,240,240,93,Juniors,B,M,Single-ply
4,Christian Flueras,1996,Germany,91.4,205,210,215,215,215,93,Juniors,B,M,Single-ply
5,Marcin Lange,1997,Poland,90.2,190,-200,-210,190,190,93,Juniors,B,M,Single-ply
1,Egor Savelyev,1994,Russia,104.4,292.5,307.5,320.5,320.5,320.5,105,Juniors,B,M,Single-ply
2,Mykyta Zhukovskyi,1995,Ukraine,101,257.5,267.5,272.5,272.5,272.5,105,Juniors,B,M,Single-ply
3,Daniel Haerter,1995,Germany,104.1,255,-262.5,262.5,262.5,262.5,105,Juniors,B,M,Single-ply
4,Conrad Hansson,1994,Sweden,100.3,250,-255,255,255,255,105,Juniors,B,M,Single-ply
5,Aleh Kudrautsau,1998,Latvia,104.75,240,-260,-265,240,240,105,Juniors,B,M,Single-ply
6,Yasuaki Tomiyama,1995,Japan,94.1,205,210,-255,210,210,105,Juniors,B,M,Single-ply
1,Roman Simahin,1996,Russia,105.3,290,295,300,300,300,120,Juniors,B,M,Single-ply
2,Lukas Skrib,1994,Slovakia,112.3,270,-285,285,285,285,120,Juniors,B,M,Single-ply
3,Ralf Male,1994,Norway,105.5,-282.5,282.5,-302.5,282.5,282.5,120,Juniors,B,M,Single-ply
4,Dennis Sauter,1994,Germany,117.35,255,265,-285,265,265,120,Juniors,B,M,Single-ply
5,Artem Agadzhanyan,1995,Latvia,119.8,255,262.5,-272.5,262.5,262.5,120,Juniors,B,M,Single-ply
6,Mitchell Cowman,1997,USA,107.3,-215,215,-227.5,215,215,120,Juniors,B,M,Single-ply
DQ,Emil Gustafsson,1994,Sweden,119.75,-265,-267.5,-272.5,,,120,Juniors,B,M,Single-ply
1,Kevin Jäger #1,1995,Germany,127.95,375,-411,,375,375,120+,Juniors,B,M,Single-ply
2,Graham Mellor,1994,UK,165.65,260,280,-310,280,280,120+,Juniors,B,M,Single-ply
3,Vladislav Nemov,1996,Russia,131.5,225,240,252.5,252.5,252.5,120+,Juniors,B,M,Single-ply
1,Slawomir Sledz,1976,Poland,58.4,165,170,-175,170,170,59,Masters 1,B,M,Single-ply
2,Naoya Ikeda,1970,Japan,59,155,-175,-175,155,155,59,Masters 1,B,M,Single-ply
3,Ari-Pekka Töllikkö,1970,Finland,58.95,100,120,-130,120,120,59,Masters 1,B,M,Single-ply
1,Mickael Bernard,1970,France,64.6,197.5,-200,-205,197.5,197.5,66,Masters 1,B,M,Single-ply
2,Akinori Amakawa,1977,Japan,64.7,155,160,-177.5,160,160,66,Masters 1,B,M,Single-ply
3,Steve Petrencak,1968,USA,65.1,147.5,152.5,-162.5,152.5,152.5,66,Masters 1,B,M,Single-ply
DQ,Marcus Holmgren,1975,Sweden,65.8,-140,-140,-155,,,66,Masters 1,B,M,Single-ply
1,Kiyoshi Matsuoka,1971,Japan,73.3,200,205,-231.5,205,205,74,Masters 1,B,M,Single-ply
2,Bartosz Zelazko,1973,Poland,73.3,195,-200,-207.5,195,195,74,Masters 1,B,M,Single-ply
3,Miguel Ruelan,1970,USA,73.9,-192.5,-192.5,192.5,192.5,192.5,74,Masters 1,B,M,Single-ply
4,Rafal Szendera,1971,Poland,72.45,190,-192.5,-192.5,190,190,74,Masters 1,B,M,Single-ply
5,Rénald Bastien,1973,France,73.4,150,160,-180,160,160,74,Masters 1,B,M,Single-ply
1,Shigenari Suzuki,1973,Japan,82,215,222.5,-260.5,222.5,222.5,83,Masters 1,B,M,Single-ply
2,Cyril Pinguet,1972,France,82.1,-217.5,217.5,-225,217.5,217.5,83,Masters 1,B,M,Single-ply
3,Martin Turek,1972,Czechia,82.5,-210,210,-212.5,210,210,83,Masters 1,B,M,Single-ply
4,Eryk Walczak,1977,Poland,82.7,200,207.5,-212.5,207.5,207.5,83,Masters 1,B,M,Single-ply
5,Vladimír Nebola,1970,Czechia,82.25,202.5,-207.5,-210,202.5,202.5,83,Masters 1,B,M,Single-ply
6,Daniel Cieplak,1973,Poland,82.95,195,-202.5,-212.5,195,195,83,Masters 1,B,M,Single-ply
7,Danny Bochmann,1976,Germany,82,150,152.5,155,155,155,83,Masters 1,B,M,Single-ply
1,Grzegorz Nocek,1973,Poland,90.4,-260,260,-290,260,260,93,Masters 1,B,M,Single-ply
2,Takayuki Miyamoto,1973,Japan,91.6,-255,-255,255,255,255,93,Masters 1,B,M,Single-ply
3,Thomas Wetzstein,1974,Austria,92.9,-255,255,-262.5,255,255,93,Masters 1,B,M,Single-ply
4,Pete Grohoski,1970,USA,92.8,-245,245,-255,245,245,93,Masters 1,B,M,Single-ply
5,Akihisa Takemura,1973,Japan,91.5,200,212.5,-245,212.5,212.5,93,Masters 1,B,M,Single-ply
6,Zanas Amosovas,1975,Lithuania,92,212.5,-217.5,-217.5,212.5,212.5,93,Masters 1,B,M,Single-ply
7,Robert Dawidowicz,1972,Sweden,92.7,207.5,-215,-215,207.5,207.5,93,Masters 1,B,M,Single-ply
8,Guido Nieland,1970,Germany,92.25,187.5,195,202.5,202.5,202.5,93,Masters 1,B,M,Single-ply
9,Petri Ronkainen,1972,Finland,92.65,180,187.5,-200,187.5,187.5,93,Masters 1,B,M,Single-ply
10,Robert Truchon,1968,Canada,91.45,95,105,110,110,110,93,Masters 1,B,M,Single-ply
DQ,Petteri Laurikainen,1969,Finland,91.2,-215,-232.5,-232.5,,,93,Masters 1,B,M,Single-ply
DQ,Michel Marneur,1968,France,92.1,-240,-240,-245,,,93,Masters 1,B,M,Single-ply
1,Tomoyuki Yamamori,1972,Japan,104.5,272.5,-280,-292.5,272.5,272.5,105,Masters 1,B,M,Single-ply
2,Frédéric Beyon,1975,France,103.8,-252.5,252.5,-255,252.5,252.5,105,Masters 1,B,M,Single-ply
3,Tony Rabineau,1973,France,104.3,-250,250,-255,250,250,105,Masters 1,B,M,Single-ply
4,Martin Green,1974,UK,104.6,-250,250,-255,250,250,105,Masters 1,B,M,Single-ply
5,Kenneth Gack,1970,USA,104.5,220,235,-252.5,235,235,105,Masters 1,B,M,Single-ply
6,Timo Rukkila,1972,Finland,104.1,190,-200,-200,190,190,105,Masters 1,B,M,Single-ply
7,Timo Lillbacka,1975,Finland,104.5,145,150,-155,150,150,105,Masters 1,B,M,Single-ply
DQ,Timothy Anderson,1972,USA,103.7,-290,-290,-290,,,105,Masters 1,B,M,Single-ply
1,Olav Kompelien,1972,Norway,118.3,-302.5,302.5,-307.5,302.5,302.5,120,Masters 1,B,M,Single-ply
2,Zbyněk Krejča,1974,Czechia,119.65,300,-305,-305,300,300,120,Masters 1,B,M,Single-ply
3,Ryan Gill,1976,USA,117.95,265,-277.5,282.5,282.5,282.5,120,Masters 1,B,M,Single-ply
4,Charles Duval,1972,France,119.2,280,-290,-300,280,280,120,Masters 1,B,M,Single-ply
5,Wolfgang Zimmermann,1968,Germany,116.15,265,270,-280,270,270,120,Masters 1,B,M,Single-ply
6,Robert Dziudzik,1977,Poland,119.3,-270,270,-287.5,270,270,120,Masters 1,B,M,Single-ply
7,János Cserna,1968,Hungary,117.7,250,-275,-280,250,250,120,Masters 1,B,M,Single-ply
8,Toshio Nakamura,1970,Japan,111.7,205,217.5,-280,217.5,217.5,120,Masters 1,B,M,Single-ply
9,Kaj Mattila,1970,Finland,114.35,210,-225,-230,210,210,120,Masters 1,B,M,Single-ply
10,Ian Ryan,1974,UK,117.95,185,195,200,200,200,120,Masters 1,B,M,Single-ply
DQ,Lasse Leinonen,1973,Finland,119.25,-302.5,-302.5,-305,,,120,Masters 1,B,M,Single-ply
1,Jérome Guidez,1974,France,150,310,-322.5,322.5,322.5,322.5,120+,Masters 1,B,M,Single-ply
2,Boldbaatar Purev,1972,Mongolia,136.4,-300,-300,305,305,305,120+,Masters 1,B,M,Single-ply
3,Robert Kretzschmar,1976,Germany,129.5,292.5,-302.5,-310,292.5,292.5,120+,Masters 1,B,M,Single-ply
DQ,Jan Pinc,1973,Czechia,126.3,-300,-305,-305,,,120+,Masters 1,B,M,Single-ply
DQ,Jeffrey Snyder,1971,USA,136.5,-342.5,-345,-345,,,120+,Masters 1,B,M,Single-ply
1,Kazuo Nakata,1967,Japan,58.8,-185,185,-195,185,185,59,Masters 2,B,M,Single-ply
2,Tomoyoshi Shiiki,1964,Japan,58.15,-127.5,-130,130,130,130,59,Masters 2,B,M,Single-ply
3,Štefan Koľšovský,1961,Slovakia,58.41,120,130,-135,130,130,59,Masters 2,B,M,Single-ply
1,Olivier Waymel,1966,France,65,175,180,-190,180,180,66,Masters 2,B,M,Single-ply
2,Charles Smith,1960,Netherlands,64.9,162.5,167.5,-180,167.5,167.5,66,Masters 2,B,M,Single-ply
3,Hideaki Nakamura,1960,Japan,65.7,105,125,130,130,130,66,Masters 2,B,M,Single-ply
4,Hannu Peräsalo,1962,Finland,65.5,90,95,97.5,97.5,97.5,66,Masters 2,B,M,Single-ply
1,Tadashi Mishima,1962,Japan,72.4,200,-215,-215,200,200,74,Masters 2,B,M,Single-ply
2,Gary Prater,1963,UK,73.35,-130,130,-137.5,130,130,74,Masters 2,B,M,Single-ply
3,Marian Piwowarczyk,1961,Poland,66.3,80,100,110,110,110,74,Masters 2,B,M,Single-ply
1,Alexey Neveykov,1966,Russia,82.8,225,-233,237.5,237.5,237.5,83,Masters 2,B,M,Single-ply
2,Fabrice Bertin,1967,France,82.9,207.5,212.5,-227.5,212.5,212.5,83,Masters 2,B,M,Single-ply
3,Donovan Thompson,1966,USA,81.85,207.5,210,-212.5,210,210,83,Masters 2,B,M,Single-ply
4,Toshio Matsuoka,1963,Japan,79.75,200,-205,-210,200,200,83,Masters 2,B,M,Single-ply
5,Tomas Ring,1960,Sweden,82.8,195,-202.5,-212.5,195,195,83,Masters 2,B,M,Single-ply
6,Ingo Woschny,1965,Germany,82.15,170,180,-195,180,180,83,Masters 2,B,M,Single-ply
DQ,Benjaminas Milis,1961,Lithuania,82.3,-185,-185,-185,,,83,Masters 2,B,M,Single-ply
DQ,Wesley Kipp,1962,USA,82.35,-205,-207.5,-215,,,83,Masters 2,B,M,Single-ply
1,Mario Schnurr,1966,Germany,92.85,207.5,215,-222.5,215,215,93,Masters 2,B,M,Single-ply
2,Bo Jensen Henrik,1967,Denmark,92.1,207.5,-215,-217.5,207.5,207.5,93,Masters 2,B,M,Single-ply
3,Yves Lemagnen,1966,France,92.4,-197.5,-200,200,200,200,93,Masters 2,B,M,Single-ply
DQ,Thomas Cencich,1960,USA,88.4,-212.5,-212.5,-212.5,,,93,Masters 2,B,M,Single-ply
DQ,Shigeaki Ametani,1967,Japan,91.8,-195,-195,-195,,,93,Masters 2,B,M,Single-ply
DQ,Bakyt Kerimbekov,1961,Kyrgyzstan,92,-220,-220,-220,,,93,Masters 2,B,M,Single-ply
DQ,Olav Farstad Svein,1965,Norway,92.5,-235,-235,-235,,,93,Masters 2,B,M,Single-ply
1,Mariusz Hadrysiak,1961,Poland,105,270,280,-287.5,280,280,105,Masters 2,B,M,Single-ply
2,Fabrice Leroy,1963,France,104,230,240,-252.5,240,240,105,Masters 2,B,M,Single-ply
3,Peer Haensicke,1961,Germany,97.7,-235,235,-245,235,235,105,Masters 2,B,M,Single-ply
4,Vladimirs Kovalskis,1958,Latvia,104.1,205,-212.5,215,215,215,105,Masters 2,B,M,Single-ply
5,Jason Julian,1960,USA,103.6,202.5,-210,-210,202.5,202.5,105,Masters 2,B,M,Single-ply
6,Mio Dabeski,1965,Sweden,99.95,195,-215,-215,195,195,105,Masters 2,B,M,Single-ply
1,Kohei Wada,1964,Japan,113.1,-295.5,-295.5,295.5,295.5,295.5,120,Masters 2,B,M,Single-ply
2,David Doan,1964,USA,118.6,282.5,-292.5,-296,282.5,282.5,120,Masters 2,B,M,Single-ply
3,Jean-Yves Minelle,1966,France,118.5,-250,250,-260,250,250,120,Masters 2,B,M,Single-ply
4,Rolf Faaß,1965,Germany,115.6,185,192.5,200,200,200,120,Masters 2,B,M,Single-ply
5,Ian Sullivan,1960,Australia,112.65,145,155,160,160,160,120,Masters 2,B,M,Single-ply
DQ,Robert Blom,1966,Sweden,119.4,-292.5,-292.5,-292.5,,,120,Masters 2,B,M,Single-ply
1,Kjell Furesund,1966,Norway,136.2,-285,285,292.5,292.5,292.5,120+,Masters 2,B,M,Single-ply
2,Mikael Jaldefors,1966,Sweden,122.75,270,285,-292.5,285,285,120+,Masters 2,B,M,Single-ply
3,Patrice Lefebvre,1962,France,139.6,255,262.5,-272.5,262.5,262.5,120+,Masters 2,B,M,Single-ply
4,Randy Earle,1962,USA,154.6,-227.5,227.5,-235,227.5,227.5,120+,Masters 2,B,M,Single-ply
DQ,Trond Fjøren,1966,Norway,154.5,-225,,,,,120+,Masters 2,B,M,Single-ply
1,Savelii Pavlov,1957,Russia,58,-117.5,117.5,120,120,120,59,Masters 3,B,M,Single-ply
2,Masato Hashimoto,1957,Japan,58,110,-112.5,112.5,112.5,112.5,59,Masters 3,B,M,Single-ply
3,Jevgēņijs Vorobjovs,1953,Latvia,58.15,107.5,-112.5,112.5,112.5,112.5,59,Masters 3,B,M,Single-ply
1,Claude Sitruk,1950,France,65,145,-152.5,152.5,152.5,152.5,66,Masters 3,B,M,Single-ply
2,Markku Kemppainen,1949,Finland,65.85,105,110,115,115,115,66,Masters 3,B,M,Single-ply
3,Seppo Flink,1953,Finland,64.55,102.5,105,-110,105,105,66,Masters 3,B,M,Single-ply
1,Vasilii Motovilnik,1957,Russia,72.85,177.5,-185,-185,177.5,177.5,74,Masters 3,B,M,Single-ply
2,Yasuhiro Hayashi,1956,Japan,72.65,160,165,-178,165,165,74,Masters 3,B,M,Single-ply
3,Daniel Sides,1956,USA,73.5,-152.5,155,-167.5,155,155,74,Masters 3,B,M,Single-ply
4,Antanas Micius,1951,Lithuania,71.65,112.5,117.5,120,120,120,74,Masters 3,B,M,Single-ply
5,Stanley Macrow,1949,UK,68.9,102.5,112.5,117.5,117.5,117.5,74,Masters 3,B,M,Single-ply
DQ,Takeshi Monoe,1952,Japan,73.1,-150,-150,-155,,,74,Masters 3,B,M,Single-ply
1,Bjarne Synstad,1951,Norway,82.5,207.5,-215.5,215.5,215.5,215.5,83,Masters 3,B,M,Single-ply
2,Arthur Hirner,1957,Germany,82.8,190,-195,195,195,195,83,Masters 3,B,M,Single-ply
3,Erick Deconinck,1956,France,82.2,172.5,185,-190,185,185,83,Masters 3,B,M,Single-ply
4,Janis Lasmanis,1955,Latvia,77.85,-172.5,172.5,-175,172.5,172.5,83,Masters 3,B,M,Single-ply
5,Krzysztof Kuchnio,1956,Poland,82.95,170,-172.5,-187.5,170,170,83,Masters 3,B,M,Single-ply
6,Alain Collard,1952,France,82.1,137.5,-145,145,145,145,83,Masters 3,B,M,Single-ply
DQ,Jos Van Kersbergen,1957,Netherlands,82.4,-165,-165,-165,,,83,Masters 3,B,M,Single-ply
1,Hans-Jürgen Ehrt,1956,Germany,91.55,-210,-210,210,210,210,93,Masters 3,B,M,Single-ply
2,Tomotaka Sakai,1957,Japan,87.5,137.5,147.5,-160,147.5,147.5,93,Masters 3,B,M,Single-ply
1,Stanislaw Mentel,1954,Poland,93.95,230,236.5,240,240,240,105,Masters 3,B,M,Single-ply
2,Martin Flett,1956,UK,96.25,100,,,100,100,105,Masters 3,B,M,Single-ply
DQ,Wojciech Grabowski,1951,Poland,102.9,-236,-236,-237,,,105,Masters 3,B,M,Single-ply
1,Björn Iversen,1955,Sweden,105.5,200,212.5,-217.5,212.5,212.5,120,Masters 3,B,M,Single-ply
2,Marius Vermeulen,1957,Netherlands,105.05,-210,210,-215,210,210,120,Masters 3,B,M,Single-ply
3,Karl-Heinz May,1953,Germany,115.2,185,195,-200,195,195,120,Masters 3,B,M,Single-ply
4,Allan Fuglsang,1950,Denmark,110.2,185,-192.5,-195,185,185,120,Masters 3,B,M,Single-ply
5,Robert Crawford,1951,USA,118.4,155,167.5,-187.5,167.5,167.5,120,Masters 3,B,M,Single-ply
1,Eberhard Schwanke,1953,Germany,141.9,225,245,-247.5,245,245,120+,Masters 3,B,M,Single-ply
2,Dainis Reinholds,1951,Latvia,123.5,-235,-235,235,235,235,120+,Masters 3,B,M,Single-ply
3,Raul Randmäe,1948,Estonia,145,180,190,-195,190,190,120+,Masters 3,B,M,Single-ply
1,Hisao Hamayama,1947,Japan,57.8,115,-120.5,120.5,120.5,120.5,59,Masters 4,B,M,Single-ply
2,Pierre Gallart,1944,France,58.4,100,110,-117.5,110,110,59,Masters 4,B,M,Single-ply
3,Masami Otaki,1942,Japan,53.95,80,85,-90,85,85,59,Masters 4,B,M,Single-ply
1,Tadanobu Danyasu,1944,Japan,64.2,125,-130,-130,125,125,66,Masters 4,B,M,Single-ply
2,Tadakazu Tsukuda,1944,Japan,64.2,115,-122.5,-127.5,115,115,66,Masters 4,B,M,Single-ply
1,Shigeki Yamamoto,1943,Japan,72.5,145,-152.5,155,155,155,74,Masters 4,B,M,Single-ply
2,Michel Dernoncourt,1946,France,73.4,145,-150,-155.5,145,145,74,Masters 4,B,M,Single-ply
3,Boleslaw Maka,1942,Poland,73.8,145,-150,-151.5,145,145,74,Masters 4,B,M,Single-ply
1,Haruki Imaizumi,1947,Japan,80.45,-157.5,157.5,-165,157.5,157.5,83,Masters 4,B,M,Single-ply
2,Mike Settles,1944,USA,81,140,145,-147.5,145,145,83,Masters 4,B,M,Single-ply
3,Horst Lorenz,1940,Germany,77.1,127.5,-130,135,135,135,83,Masters 4,B,M,Single-ply
4,Alex Lee,1944,UK,77.75,135,-140,-140,135,135,83,Masters 4,B,M,Single-ply
1,Georgijs Agadzhanjans,1946,Latvia,89.85,150,-155,157.5,157.5,157.5,93,Masters 4,B,M,Single-ply
2,Seppo Komppa,1945,Finland,92,150,-155,157.5,157.5,157.5,93,Masters 4,B,M,Single-ply
3,Adriaan Fabrie,1946,Netherlands,92,125,130,135,135,135,93,Masters 4,B,M,Single-ply
4,Veikko Männistö,1940,Finland,91.75,115,120,-130,120,120,93,Masters 4,B,M,Single-ply
1,William Helmich,1942,USA,100.45,135,137.5,-145,137.5,137.5,105,Masters 4,B,M,Single-ply
2,Adolf Rohrbacher,1938,Austria,93.17,110,-115,-115,110,110,105,Masters 4,B,M,Single-ply
3,Mihkel Laurits,1944,Estonia,99.85,100,-142.5,-145,100,100,105,Masters 4,B,M,Single-ply
1,Franz Mracek,1947,Austria,113.75,135,145,150,150,150,120,Masters 4,B,M,Single-ply
2,Edvardas Nakciunas,1944,Lithuania,108.1,115,125,-145,125,125,120,Masters 4,B,M,Single-ply
1,Valdis Alksnītis,1941,Latvia,140.1,190,195,203,203,203,120+,Masters 4,B,M,Single-ply
1,Aigul Sitdikova,1989,Russia,46.85,115,120,122.5,122.5,122.5,47,Open,B,F,Single-ply
2,Justyna Kozdryk,1980,Poland,44.5,105,112.5,120,120,120,47,Open,B,F,Single-ply
3,Maryna Murzina,1995,Ukraine,46.9,90,92.5,-100,92.5,92.5,47,Open,B,F,Single-ply
4,Mariana Kolyadenko,1991,Ukraine,46.55,80,-90,-92.5,80,80,47,Open,B,F,Single-ply
1,Hanna Rantala,1982,Finland,51.45,122.5,127.5,132.5,132.5,132.5,52,Open,B,F,Single-ply
2,Yana Zadorina,1982,Russia,49.55,120,125,130,130,130,52,Open,B,F,Single-ply
3,Marcela Sandvik,1974,Finland,51.5,120,125,-130,125,125,52,Open,B,F,Single-ply
4,Juanita Najera,1981,USA,51.5,95,-100,102.5,102.5,102.5,52,Open,B,F,Single-ply
5,Maura Shuttleworth,1976,USA,51.9,100,102.5,-127.5,102.5,102.5,52,Open,B,F,Single-ply
1,Larisa Kotkova,1974,Russia,56.75,152.5,157.5,162.5,162.5,162.5,57,Open,B,F,Single-ply
2,Anastasia Petrova,1985,Russia,55.7,145,152.5,-160,152.5,152.5,57,Open,B,F,Single-ply
3,Ellie Steel,1991,UK,56.6,125,-132.5,140,140,140,57,Open,B,F,Single-ply
4,Monika Sroczyk,1992,Poland,56.4,110,-122.5,-125,110,110,57,Open,B,F,Single-ply
1,Gundula Fiona Sommer von Bachhaus,1981,Germany,62.7,162.5,167.5,-185,167.5,167.5,63,Open,B,F,Single-ply
2,Fanney Hauksdóttir,1992,Iceland,62.1,-152.5,152.5,157.5,157.5,157.5,63,Open,B,F,Single-ply
3,Karolina Arvidson,1985,Sweden,60.15,117.5,120,127.5,127.5,127.5,63,Open,B,F,Single-ply
4,Faye Jordan,1982,UK,61.05,90,-97.5,-102.5,90,90,63,Open,B,F,Single-ply
5,Magda Zapior,1980,Poland,60.35,65,70,-75,70,70,63,Open,B,F,Single-ply
DQ,Yuka Okutani,1984,Japan,62.1,-115,-115,-115,,,63,Open,B,F,Single-ply
1,Tetyana Melnyk,1985,Ukraine,72,160,167.5,175,175,175,72,Open,B,F,Single-ply
2,Yulia Chistiakova,1989,Russia,69.5,157.5,165,172.5,172.5,172.5,72,Open,B,F,Single-ply
3,Andrea Hammarström,1977,Sweden,70.85,-160,160,-167.5,160,160,72,Open,B,F,Single-ply
4,Kathrine Hoås,1992,Norway,72,142.5,150,155,155,155,72,Open,B,F,Single-ply
5,Zhadyra Kabieva,1992,Kazakhstan,69.7,-140,-140,150,150,150,72,Open,B,F,Single-ply
6,Kari Krokeide Ruth,1989,Norway,70.4,140,145,150,150,150,72,Open,B,F,Single-ply
7,Cathrin Silberzahn,1988,Germany,69.5,132.5,137.5,-145,137.5,137.5,72,Open,B,F,Single-ply
8,Ina Scholz,1978,Germany,67.25,120,125,130,130,130,72,Open,B,F,Single-ply
9,Michaela Drabálková,1989,Czechia,71.35,122.5,-127.5,-130,122.5,122.5,72,Open,B,F,Single-ply
10,Kimberley Cowell,1988,UK,71.5,105,112.5,-115,112.5,112.5,72,Open,B,F,Single-ply
DQ,Antonina Marchenko,1989,Ukraine,69.85,-150,-150,-150,,,72,Open,B,F,Single-ply
DQ,Kumi Mizoguchi,1988,Japan,70.8,-170,-170,-170,,,72,Open,B,F,Single-ply
1,Sofie Josefsson,1992,Sweden,79.45,170,175,180,180,180,84,Open,B,F,Single-ply
2,Lyudmila Protchenko,1986,Russia,84,-175,175,180,180,180,84,Open,B,F,Single-ply
3,Ielja Strik,1973,Netherlands,83.25,175,-177.5,-177.5,175,175,84,Open,B,F,Single-ply
4,Ekaterina Baranova,1992,Russia,83.7,165,-172.5,-177.5,165,165,84,Open,B,F,Single-ply
5,Vivien Roeder,1988,Germany,75,137.5,145,150,150,150,84,Open,B,F,Single-ply
6,Frida Wik,1991,Sweden,78.15,150,-155,-175,150,150,84,Open,B,F,Single-ply
7,Katja Broxtermann,1986,Germany,73.2,107.5,112.5,-115,112.5,112.5,84,Open,B,F,Single-ply
8,Orla Mahon,1984,UK,82.1,92.5,100,107.5,107.5,107.5,84,Open,B,F,Single-ply
1,Ágnes Szabó,1988,Hungary,115.4,190,195,202.5,202.5,202.5,84+,Open,B,F,Single-ply
2,Sandra Lönn,1974,Sweden,119.1,180,192.5,202.5,202.5,202.5,84+,Open,B,F,Single-ply
3,Annette Rehoff Christensen,1965,Denmark,123.95,185,195,-205,195,195,84+,Open,B,F,Single-ply
4,Laura Berry,1982,UK,95.05,142.5,152.5,-155,152.5,152.5,84+,Open,B,F,Single-ply
1,Ekaterina Volodko,2001,Russia,42.7,67.5,70,72.5,72.5,72.5,43,Sub-Juniors,B,F,Single-ply
2,Kristina Popova,2001,Kazakhstan,42.9,67.5,-72.5,-75,67.5,67.5,43,Sub-Juniors,B,F,Single-ply
1,Rada Dmitrieva,1999,Russia,44.9,60,62.5,65,65,65,47,Sub-Juniors,B,F,Single-ply
2,Sylwia Mularczyk,2000,Poland,46.3,55,60,62.5,62.5,62.5,47,Sub-Juniors,B,F,Single-ply
3,Yana Romanova,2002,Kazakhstan,46.1,52.5,55,60,60,60,47,Sub-Juniors,B,F,Single-ply
1,Saniya Omarkhanova,1999,Kazakhstan,51.8,80,87.5,-92.5,87.5,87.5,52,Sub-Juniors,B,F,Single-ply
2,Maria Kasprzyk,1999,Poland,50.8,45,47.5,50,50,50,52,Sub-Juniors,B,F,Single-ply
1,Daniela Kolesnik,1999,Russia,56.7,130,135,140.5,140.5,140.5,57,Sub-Juniors,B,F,Single-ply
2,Taisiya Dyachenko,2000,Kazakhstan,56.4,120,-130,-130,120,120,57,Sub-Juniors,B,F,Single-ply
1,Daria Vakhrameeva,2000,Russia,60.9,115,125,133,133,133,63,Sub-Juniors,B,F,Single-ply
2,Madalyn Graham,1999,USA,59.75,95,105,110,110,110,63,Sub-Juniors,B,F,Single-ply
3,Egle Turakeviciute,1999,Lithuania,61.85,95,100,107.5,107.5,107.5,63,Sub-Juniors,B,F,Single-ply
4,Aleksandra Trojnar,1999,Poland,62.2,75,80,-85,80,80,63,Sub-Juniors,B,F,Single-ply
1,Anastasiya Zhurbina,1999,Kazakhstan,63.4,117.5,122.5,-130,122.5,122.5,72,Sub-Juniors,B,F,Single-ply
2,Anna Mikryukova,1999,Russia,63.05,110,112.5,115,115,115,72,Sub-Juniors,B,F,Single-ply
3,Camryn Ochs,1999,USA,69.9,90,95,-102.5,95,95,72,Sub-Juniors,B,F,Single-ply
4,Zuzanna Firek,2000,Poland,63.2,90,-95,-97.5,90,90,72,Sub-Juniors,B,F,Single-ply
5,Elli Rautiainen,1999,Finland,65.25,85,90,-97.5,90,90,72,Sub-Juniors,B,F,Single-ply
6,Viktoriya Kozar,2001,Ukraine,64.7,80,-85,-85,80,80,72,Sub-Juniors,B,F,Single-ply
1,Olesia Nesterenko,2001,Russia,72.85,105,110,115,115,115,84,Sub-Juniors,B,F,Single-ply
2,Abigail Stafslien-Dumale,2000,USA,83.45,110,112.5,-117.5,112.5,112.5,84,Sub-Juniors,B,F,Single-ply
3,Daria Chetvernina,2000,Russia,81.2,90,97.5,-102.5,97.5,97.5,84,Sub-Juniors,B,F,Single-ply
DQ,Lili Szabo,2000,Hungary,75,-92.5,-92.5,-97.5,,,84,Sub-Juniors,B,F,Single-ply
1,Regina Meier,1999,Kazakhstan,92.3,120,127.5,135,135,135,84+,Sub-Juniors,B,F,Single-ply
2,Michaela Botková,2000,Slovakia,93.25,120,130,-137.5,130,130,84+,Sub-Juniors,B,F,Single-ply
1,Tetyana Shlopko,1996,Ukraine,46.25,87.5,92.5,100,100,100,47,Juniors,B,F,Single-ply
2,Olga Gerasimova,1995,Russia,46.55,85,-90,90,90,90,47,Juniors,B,F,Single-ply
3,Mariia Burova,1995,Russia,46.8,85,-90,90,90,90,47,Juniors,B,F,Single-ply
4,Sabra Warren,1996,USA,44.05,80,-85,-85,80,80,47,Juniors,B,F,Single-ply
5,Cserna Petra,1996,Hungary,46.35,-50,50,60,60,60,47,Juniors,B,F,Single-ply
6,Aleksandra Szymczykowska,1998,Poland,46.85,60,-62.5,-62.5,60,60,47,Juniors,B,F,Single-ply
1,Marta Sroczyk,1995,Poland,51.3,110,115,-117.5,115,115,52,Juniors,B,F,Single-ply
2,Iryna Shkaraputa,1994,Ukraine,49.8,90,95,-100,95,95,52,Juniors,B,F,Single-ply
3,Alesia Petukhova,1997,Russia,51.8,82.5,87.5,-97.5,87.5,87.5,52,Juniors,B,F,Single-ply
4,Krystie Kettlewell,1996,USA,51.8,-70,70,-90,70,70,52,Juniors,B,F,Single-ply
1,Aliya Tolegenova,1996,Kazakhstan,56.2,112.5,-115,117.5,117.5,117.5,57,Juniors,B,F,Single-ply
2,Jodel Patino,1997,USA,56.9,-100,100,115,115,115,57,Juniors,B,F,Single-ply
3,Kristina Odnokozova,1996,Russia,55.19,-90,90,-92.5,90,90,57,Juniors,B,F,Single-ply
4,Yuki Sakura,1995,Japan,56.6,85,-92.5,-100,85,85,57,Juniors,B,F,Single-ply
DQ,Tatiana Rikhelgof,1997,Russia,55.9,-102.5,-102.5,-102.5,,,57,Juniors,B,F,Single-ply
1,Matilda Vilmar,1996,Sweden,62.45,117.5,122.5,-130,122.5,122.5,63,Juniors,B,F,Single-ply
2,Gabriella Grant,1994,USA,62.9,107.5,-110,110,110,110,63,Juniors,B,F,Single-ply
3,Yuliia Chykalina,1998,Ukraine,58.55,100,105,107.5,107.5,107.5,63,Juniors,B,F,Single-ply
4,Simona Baksyte,1995,Lithuania,60.1,80,85,-90,85,85,63,Juniors,B,F,Single-ply
DQ,Klaudia Nowak,1998,Poland,62.35,-100,-100,-107.5,,,63,Juniors,B,F,Single-ply
1,Mariia Erokhina,1995,Russia,71.2,122.5,127.5,132.5,132.5,132.5,72,Juniors,B,F,Single-ply
2,Emma Johansson,1996,Sweden,67.55,125,-130,130,130,130,72,Juniors,B,F,Single-ply
3,Danielle Ross,1995,USA,70,-130,-130,130,130,130,72,Juniors,B,F,Single-ply
4,Maaike de Vries,1994,Netherlands,71.2,112.5,120,-127.5,120,120,72,Juniors,B,F,Single-ply
1,Iana Pokazaneva,1995,Russia,83.1,137.5,-142.5,142.5,142.5,142.5,84,Juniors,B,F,Single-ply
2,Nicole Maalouf,1994,USA,73.3,-130,130,137.5,137.5,137.5,84,Juniors,B,F,Single-ply
3,Jessika Lowe,1996,Sweden,74.8,132.5,-137.5,-137.5,132.5,132.5,84,Juniors,B,F,Single-ply
4,Darya Shashkova,1997,Ukraine,78,120,127.5,-132.5,127.5,127.5,84,Juniors,B,F,Single-ply
1,Monika Lovas,1994,Hungary,118.8,145,155,162.5,162.5,162.5,84+,Juniors,B,F,Single-ply
2,Tatiana Didenko,1997,Russia,85.5,-110,110,115,115,115,84+,Juniors,B,F,Single-ply
1,Terumi Yogo,1969,Japan,45.85,77.5,82.5,-87.5,82.5,82.5,47,Masters 1,B,F,Single-ply
2,Katja Ronkainen,1973,Finland,46.8,40,45,-50,45,45,47,Masters 1,B,F,Single-ply
1,Yumiko Ito,1976,Japan,51.5,60,70,-80,70,70,52,Masters 1,B,F,Single-ply
1,Véronique Descours,1971,France,56.75,87.5,-92.5,-92.5,87.5,87.5,57,Masters 1,B,F,Single-ply
2,Tarja Tähkänen,1969,Finland,55,50,55,60,60,60,57,Masters 1,B,F,Single-ply
1,Christelle Maniez,1975,France,61.75,115,120,-127.5,120,120,63,Masters 1,B,F,Single-ply
2,Annelie Izindre,1972,Sweden,59.2,105,-115,-120,105,105,63,Masters 1,B,F,Single-ply
3,Lina Gerute,1976,Lithuania,60.8,50,-60,-60,50,50,63,Masters 1,B,F,Single-ply
1,Annette Pedersen,1968,Denmark,69.85,107.5,112.5,117.5,117.5,117.5,72,Masters 1,B,F,Single-ply
2,Frieda Holzer,1968,Germany,71.6,115,-117.5,-120,115,115,72,Masters 1,B,F,Single-ply
3,Wendie Kirkland,1972,UK,70.2,90,97.5,-115,97.5,97.5,72,Masters 1,B,F,Single-ply
1,Stéphanie Bastien,1974,France,81.75,117.5,122.5,-132.5,122.5,122.5,84,Masters 1,B,F,Single-ply
2,Angelique Dalia,1972,France,77.2,97.5,102.5,107.5,107.5,107.5,84,Masters 1,B,F,Single-ply
3,Rebecca Williams,1976,UK,74.85,87.5,-92.5,-102.5,87.5,87.5,84,Masters 1,B,F,Single-ply
4,Susanna Nakari,1968,Finland,81.75,70,-72.5,-72.5,70,70,84,Masters 1,B,F,Single-ply
DQ,Eva Engskar,1973,Norway,82.95,-175,-175,-175,,,84,Masters 1,B,F,Single-ply
1,Rebekah Lair,1976,USA,106.65,147.5,-152.5,160,160,160,84+,Masters 1,B,F,Single-ply
2,Katariina Nokua,1973,Finland,109.3,147.5,-155,-162.5,147.5,147.5,84+,Masters 1,B,F,Single-ply
3,Jo Whiteley,1970,UK,109.4,120,125,-135,125,125,84+,Masters 1,B,F,Single-ply
4,Zeneta Skaviciene,1976,Lithuania,115.65,-125,125,-137.5,125,125,84+,Masters 1,B,F,Single-ply
5,Mami Komatsu,1969,Japan,109.35,105,115,-125,115,115,84+,Masters 1,B,F,Single-ply
1,Nathalie Feraud,1967,France,46.7,77.5,-82.5,-82.5,77.5,77.5,47,Masters 2,B,F,Single-ply
2,Masami Shibata,1965,Japan,46.4,60,65,-77.5,65,65,47,Masters 2,B,F,Single-ply
1,Mika Teramura,1962,Japan,51.5,85,-87.5,90,90,90,52,Masters 2,B,F,Single-ply
2,Brigitte Landon,1961,France,49.9,70,72.5,-75,72.5,72.5,52,Masters 2,B,F,Single-ply
1,Tomoko Sakamaki,1965,Japan,55.1,95,100,-124.5,100,100,57,Masters 2,B,F,Single-ply
2,Karen Blessington,1960,USA,55.8,75,77.5,-80,77.5,77.5,57,Masters 2,B,F,Single-ply
3,Eira Pajuharju,1964,Finland,54.35,70,-75,-77.5,70,70,57,Masters 2,B,F,Single-ply
1,Tarja Uppala,1965,Finland,62.9,-100,100,102.5,102.5,102.5,63,Masters 2,B,F,Single-ply
2,Patricia Maciejewski,1961,France,63,92.5,97.5,102.5,102.5,102.5,63,Masters 2,B,F,Single-ply
3,Sophie Angenot,1966,France,61.2,82.5,-85,-85,82.5,82.5,63,Masters 2,B,F,Single-ply
4,Michelle Franklin,1966,UK,59.25,65,70,-82.5,70,70,63,Masters 2,B,F,Single-ply
1,Ursula Haeuser,1960,Germany,70.9,95,-102.5,-107.5,95,95,72,Masters 2,B,F,Single-ply
2,Seija Skogman,1965,Finland,69.85,72.5,-75,75,75,75,72,Masters 2,B,F,Single-ply
3,Aline Leroy,1962,France,70.3,67.5,70,-75,70,70,72,Masters 2,B,F,Single-ply
DQ,Chieko Kudo,1967,Japan,66.6,-100,-100,-105,,,72,Masters 2,B,F,Single-ply
1,Åsa Halvarsson,1961,Sweden,76.95,97.5,102.5,107.5,107.5,107.5,84,Masters 2,B,F,Single-ply
2,Lene Einarsen,1963,Norway,81.85,92.5,97.5,105,105,105,84,Masters 2,B,F,Single-ply
3,Giedre Vidziuniene,1966,Lithuania,72.8,-75,75,85,85,85,84,Masters 2,B,F,Single-ply
1,Paulette Calhoun,1958,USA,103.7,82.5,105,112.5,112.5,112.5,84+,Masters 2,B,F,Single-ply
1,Pirjo Kemppainen,1951,Finland,46.7,30,35,-37.5,35,35,47,Masters 3,B,F,Single-ply
1,Aira Knutars,1954,Finland,51.45,72.5,80,-82,80,80,52,Masters 3,B,F,Single-ply
1,Yuko Nagao,1950,Japan,54.8,40,-85,-85,40,40,57,Masters 3,B,F,Single-ply
1,Yoshiko Komi,1955,Japan,62,-105,-105,105,105,105,63,Masters 3,B,F,Single-ply
2,Evelyne Herbin,1956,France,62.65,80,-85,85,85,85,63,Masters 3,B,F,Single-ply
1,Chiyomi Sawa,1949,Japan,70.8,100,110,-128,110,110,72,Masters 3,B,F,Single-ply
2,Marie Christine Liege,1955,France,67,70,75,-77.5,75,75,72,Masters 3,B,F,Single-ply
1,Hana Takáčová,1954,Czechia,82.5,120,-127.5,127.5,127.5,127.5,84,Masters 3,B,F,Single-ply
1,Eila Kumpuniemi,1942,Finland,46.25,40,47.5,52.5,52.5,52.5,47,Masters 4,B,F,Single-ply
1,Françoise Heligon,1943,France,51.1,55,57.5,62.5,62.5,62.5,52,Masters 4,B,F,Single-ply
2,Yoshiko Furukawa,1939,Japan,51.55,-45,45,-64.5,45,45,52,Masters 4,B,F,Single-ply
1,Bebe Burns,1942,USA,52.65,40,45,47.5,47.5,47.5,57,Masters 4,B,F,Single-ply
2,Denise Johnson,1947,USA,53.5,32.5,35,37.5,37.5,37.5,57,Masters 4,B,F,Single-ply
1,Ilona Greiner,1946,Germany,64.8,60,-62.5,-65,60,60,72,Masters 4,B,F,Single-ply
