Place,Name,State,WeightClassKg,BodyweightKg,Age,Best3SquatKg,Best3BenchKg,Best3DeadliftKg,TotalKg,Sex,Division,Equipment,Event,Squat4Kg,Bench4Kg,Deadlift4Kg,Tested
1,Alexis Lockard,OH,56,55.7,21,70,47.5,105,222.5,F,Juniors 20-23,Raw,SBD,,,,Yes
1,Izzy Gallo,OH,60,59.4,17,105,47.5,107.5,260,F,Juniors 16-17,Raw,SBD,,,,Yes
1,Lucia Wolford,OH,67.5,66.4,15,97.5,52.5,115,265,F,Juniors 13-15,Raw,SBD,,,,Yes
1,Arianna Spalding,OH,67.5,66,22,90,60,127.5,277.5,F,Juniors 20-23,Raw,SBD,,,,Yes
2,Haley Adams,OH,67.5,64.4,22,95,55,100,250,F,Juniors 20-23,Raw,SBD,,,,Yes
1,Helen Murphy,OH,75,73.9,15,122.5,55,130,307.5,F,Juniors 13-15,Raw,SBD,,,,Yes
1,Rebeca Soto-Llamas,OH,75,74.9,23,132.5,70,147.5,350,F,Juniors 20-23,Raw,SBD,,,,Yes
1,Tonya Reidy,OH,52,49.4,38,75,45,82.5,202.5,F,Open,Raw,SBD,,,,Yes
1,Chelsie Corso,OH,56,54.7,27,105,70,132.5,307.5,F,Open,Raw,SBD,,,,Yes
1,Lisa Courtney,OH,60,58.8,54,105,58,117.5,280.5,F,Open,Raw,SBD,,,,Yes
2,Izzy Gallo,OH,60,59.4,17,105,47.5,107.5,260,F,Open,Raw,SBD,,,,Yes
3,Alicia Merrill,OH,60,59.5,27,82.5,55,110,247.5,F,Open,Raw,SBD,,,,Yes
1,Sabrina Mangin,OH,67.5,65.5,34,130,80,145,355,F,Open,Raw,SBD,,,,Yes
2,Robin Gay,OH,67.5,66.8,49,117.5,67.5,120,305,F,Open,Raw,SBD,,,,Yes
3,Danielle Heckman,OH,67.5,65.8,28,117.5,55,127.5,300,F,Open,Raw,SBD,,,,Yes
4,Haley Adams,OH,67.5,64.4,22,95,55,100,250,F,Open,Raw,SBD,,,,Yes
1,Julia Marrin,CA,75,74.2,25,155,65,177.5,397.5,F,Open,Raw,SBD,,,,Yes
2,Rebeca Soto-Llamas,OH,75,74.9,23,132.5,70,147.5,350,F,Open,Raw,SBD,,,,Yes
3,Helen Murphy,OH,75,73.9,15,122.5,55,130,307.5,F,Open,Raw,SBD,,,,Yes
4,Courtney Pustay,OH,75,71.9,30,107.5,47.5,135,290,F,Open,Raw,SBD,,,,Yes
5,Danielle Murphy,OH,75,74.1,49,72.5,47.5,97.5,217.5,F,Open,Raw,SBD,,,,Yes
1,Jolene Santee,OH,82.5,80.9,41,117.5,77.5,152.5,347.5,F,Open,Raw,SBD,,,,Yes
1,Cara Boss,OH,90+,105,26,175,107.5,197.5,480,F,Open,Raw,SBD,,,202.5,Yes
2,Marisa Kanaga,OH,90+,107.5,30,167.5,77.5,187.5,432.5,F,Open,Raw,SBD,,,,Yes
3,Autumn Weary,PA,90+,93.4,28,145,82.5,155,382.5,F,Open,Raw,SBD,,,,Yes
4,Victoria Marvin,OH,90+,91.1,36,72.5,62.5,102.5,237.5,F,Open,Raw,SBD,,,,Yes
1,Tonya Reidy,OH,52,49.4,38,75,45,82.5,202.5,F,Submasters 35-39,Raw,SBD,,,,Yes
1,Sara Kelley,OH,90+,129.2,37,137.5,85,157.5,380,F,Submasters 35-39,Raw,SBD,,,,Yes
2,Angela Cline,OH,90+,98.1,35,127.5,80,145,352.5,F,Submasters 35-39,Raw,SBD,,,,Yes
1,Allison Taylor,OH,48,47.7,45,52.5,30,47.5,130,F,Masters 45-49,Raw,SBD,,,,Yes
1,Lisa Weiss,OH,48,48,51,70,50,112.5,232.5,F,Masters 50-54,Raw,SBD,,,,Yes
1,Angela Grajzl,OH,56,54.1,55,70,32.5,82.5,185,F,Masters 55-59,Raw,SBD,,,,Yes
1,Lisa Courtney,OH,60,58.8,54,105,58,117.5,280.5,F,Masters 50-54,Raw,SBD,,,,Yes
1,Robin Gay,OH,67.5,66.8,49,117.5,67.5,120,305,F,Masters 45-49,Raw,SBD,,,,Yes
1,Danielle Murphy,OH,75,74.1,49,72.5,47.5,97.5,217.5,F,Masters 45-49,Raw,SBD,,,,Yes
1,Jennifer Hillier,OH,75,74.8,59,77.5,45,112.5,235,F,Masters 55-59,Raw,SBD,,,,Yes
2,Aven Malec,OH,75,72.4,59,77.5,45,102.5,225,F,Masters 55-59,Raw,SBD,,,,Yes
1,Jolene Santee,OH,82.5,80.9,41,117.5,77.5,152.5,347.5,F,Masters 40-44,Raw,SBD,,,,Yes
1,Aaron Babet,OH,52,51.4,14,122.5,70,155,347.5,M,Juniors 13-15,Raw,SBD,,,,Yes
1,Joey Zarlinga,OH,67.5,66.7,22,205,125,230,560,M,Juniors 20-23,Raw,SBD,,,,Yes
1,Nick Friedman,OH,75,73.2,19,170,132.5,195,497.5,M,Juniors 18-19,Raw,SBD,,,,Yes
2,Christian Talcott,OH,75,72.1,18,150,102.5,185,437.5,M,Juniors 18-19,Raw,SBD,,,,Yes
1,Trenton Garisek,OH,82.5,82.5,19,165,112.5,210,487.5,M,Juniors 18-19,Raw,SBD,,,,Yes
2,Zach Musarra,OH,82.5,80.9,19,132.5,117.5,192.5,442.5,M,Juniors 18-19,Raw,SBD,,,,Yes
1,Kyle Agner,OH,82.5,80.7,21,220,170,267.5,657.5,M,Juniors 20-23,Raw,SBD,,,,Yes
2,Chris Sharp,OH,82.5,80.6,20,165,132.5,250,547.5,M,Juniors 20-23,Raw,SBD,,,,Yes
3,Jared Hilbert,OH,82.5,78,22,185,115,235,535,M,Juniors 20-23,Raw,SBD,,,,Yes
1,John Schroeder,OH,90,86.5,21,227.5,125,282.5,635,M,Juniors 20-23,Raw,SBD,,,,Yes
2,David Belak,OH,90,89.3,21,222.5,132.5,270,625,M,Juniors 20-23,Raw,SBD,,,,Yes
1,Marcus Mason,OH,100,97.6,17,147.5,75,150,372.5,M,Juniors 16-17,Raw,SBD,,,,Yes
DQ,Calvin Wolford,OH,110,106.3,18,232.5,157.5,,,M,Juniors 18-19,Raw,SBD,,,,Yes
1,Nathan Wise,OH,110,101.7,22,175,135,260,570,M,Juniors 20-23,Raw,SBD,,,,Yes
2,Bruce Lockaby,OH,110,101.3,21,175,130,207.5,512.5,M,Juniors 20-23,Raw,SBD,,,,Yes
1,Joey Zarlinga,OH,67.5,66.7,22,205,125,230,560,M,Open,Raw,SBD,,,,Yes
2,Alex Geier,OH,67.5,66.7,30,140,102.5,190,432.5,M,Open,Raw,SBD,,,,Yes
1,Casmir Hughes,OH,75,73.8,30,215,147.5,280,642.5,M,Open,Raw,SBD,,,,Yes
2,Nathan Noles,OH,75,74.3,20,195,130,210,535,M,Open,Raw,SBD,,,,Yes
3,Kevin Smyth,OH,75,72.3,30,137.5,92.5,167.5,397.5,M,Open,Raw,SBD,,,,Yes
1,Randy Myers,OH,82.5,81.5,33,205,145,220,570,M,Open,Raw,SBD,,,,Yes
2,Carlo Lomanto,OH,82.5,81.8,36,170,112.5,232.5,515,M,Open,Raw,SBD,,,,Yes
3,Jason Gallo,OH,82.5,79.7,44,185,125,200,510,M,Open,Raw,SBD,,,,Yes
4,Matt Treblas,OH,82.5,80,35,165,115,182.5,462.5,M,Open,Raw,SBD,,,,Yes
5,George Linder,OH,82.5,80.6,50,137.5,97.5,190,425,M,Open,Raw,SBD,,,,Yes
DQ,Eric Jelen,OH,82.5,81,27,,,,,M,Open,Raw,SBD,,,,Yes
1,Brian Crosby,OH,90,88.5,27,207.5,178,252.5,638,M,Open,Raw,SBD,,,,Yes
2,John Schroeder,OH,90,86.5,21,227.5,125,282.5,635,M,Open,Raw,SBD,,,,Yes
3,Kevin James,OH,90,88.7,29,195,162.5,262.5,620,M,Open,Raw,SBD,,,,Yes
4,Daniel Leovic,OH,90,87.1,33,192.5,135,250,577.5,M,Open,Raw,SBD,,,,Yes
1,Justin Smith #2,OH,100,96.8,25,275,197.5,305,777.5,M,Open,Raw,SBD,,,,Yes
2,Nick Haught,OH,100,93.7,31,222.5,142.5,275,640,M,Open,Raw,SBD,,,,Yes
3,Eric Eskridge,OH,100,93.3,28,185,167.5,260,612.5,M,Open,Raw,SBD,,,,Yes
4,Adam Whitlach,OH,100,97.9,35,227.5,145,240,612.5,M,Open,Raw,SBD,,,,Yes
5,Zack Underwood,OH,100,98.6,29,185,120,252.5,557.5,M,Open,Raw,SBD,,,,Yes
1,Kyle Kish,OH,110,107.8,27,155,172.5,217.5,545,M,Open,Raw,SBD,,,,Yes
2,Steve Pustay,OH,110,109.1,41,195,125,217.5,537.5,M,Open,Raw,SBD,,,,Yes
3,Bruce Lockaby,OH,110,101.3,21,175,130,207.5,512.5,M,Open,Raw,SBD,,,,Yes
4,Jason Larkin,OH,110,106.9,39,157.5,105,165,427.5,M,Open,Raw,SBD,,,,Yes
1,Ray Buffington,OH,125,124.1,36,267.5,195,260,722.5,M,Open,Raw,SBD,,,,Yes
2,Tim Bonds,OH,125,123.4,36,235,175,310,720,M,Open,Raw,SBD,,,,Yes
2,Ray Rateno,OH,125,113.5,34,172.5,135,227.5,535,M,Open,Raw,SBD,,,,Yes
1,Joe Gillespie,OH,140,135,25,245,160,295,700,M,Open,Raw,SBD,,,,Yes
1,Jared Neal,OH,140+,142.7,28,315,195,345,855,M,Open,Raw,SBD,,,,Yes
2,Jeremy Burroughs,PA,140+,149.3,28,300,235,285,820,M,Open,Raw,SBD,,240,,Yes
1,William Naugle,OH,100,97.9,39,152.5,125,170,447.5,M,Submasters 35-39,Raw,SBD,,,,Yes
1,Jason Larkin,OH,110,106.9,39,157.5,105,165,427.5,M,Submasters 35-39,Raw,SBD,,,,Yes
1,Ray Buffington,OH,125,124.1,36,267.5,195,260,722.5,M,Submasters 35-39,Raw,SBD,,,,Yes
2,Tim Bonds,OH,125,123.4,36,235,175,310,720,M,Submasters 35-39,Raw,SBD,,,,Yes
1,Henry de Groh III,OH,67.5,66.9,56,125,95,137.5,357.5,M,Masters 55-59,Raw,SBD,,,140,Yes
1,Mike Garcia,OH,75,72.6,50,122.5,105,160,387.5,M,Masters 50-54,Raw,SBD,,,,Yes
1,Jason Gallo,OH,82.5,79.7,44,185,125,200,510,M,Masters 40-44,Raw,SBD,,,,Yes
1,George Linder,OH,82.5,80.6,50,137.5,97.5,190,425,M,Masters 50-54,Raw,SBD,,,,Yes
1,Kevin Cochenour,OH,100,98.7,44,227.5,152.5,240,620,M,Masters 40-44,Raw,SBD,228.5,157.5,,Yes
1,Craig Eldridge,OH,100,96.1,56,160,115,230,505,M,Masters 55-59,Raw,SBD,,,,Yes
2,Orlando Gardner,OH,100,99.8,55,162.5,122.5,207.5,492.5,M,Masters 55-59,Raw,SBD,,,,Yes
1,Steve Pustay,OH,110,109.1,41,195,125,217.5,537.5,M,Masters 40-44,Raw,SBD,,,,Yes
2,Mike Quintus,OH,110,107,40,182.5,115,232.5,530,M,Masters 40-44,Raw,SBD,,,,Yes
1,Doug Morton,OH,140+,198.4,48,140,125,210,475,M,Masters 45-49,Raw,SBD,,,,Yes
1,Rebecca Carter,OH,52,50.4,31,112.5,50,115,277.5,F,Open,Wraps,SBD,,,,Yes
1,Matthew Morrow,OH,90,89.7,18,232.5,130,252.5,615,M,Juniors 18-19,Wraps,SBD,,,,Yes
1,Justin Kilgore,OH,100,90.3,22,247.5,155,260,662.5,M,Juniors 20-23,Wraps,SBD,,,,Yes
1,Matthew Morrow,OH,90,89.7,18,232.5,130,252.5,615,M,Open,Wraps,SBD,,,,Yes
1,Justin Kilgore,OH,100,90.3,22,247.5,155,260,662.5,M,Open,Wraps,SBD,,,,Yes
2,Tate Gibson,OH,100,97.9,28,225,147.5,262.5,635,M,Open,Wraps,SBD,,,,Yes
DQ,Travis Rossiter,OH,100,98.1,31,247.5,,270,,M,Open,Wraps,SBD,,,,Yes
1,Josh Walker,OH,110,108.9,28,237.5,135,257.5,630,M,Open,Wraps,SBD,,,,Yes
2,Mike Shaeffer,OH,110,105.8,30,230,137.5,250,617.5,M,Open,Wraps,SBD,,,,Yes
1,Cory Germani,OH,125,121.6,26,142.5,117.5,180,440,M,Open,Wraps,SBD,,,,Yes
1,Keith Shinn,OH,100,97.2,43,210,165,230,605,M,Masters 40-44,Wraps,SBD,,,237.5,Yes
1,Gary Board,PA,125,119.5,49,225,132.5,235,592.5,M,Masters 45-49,Wraps,SBD,,,,Yes
1,Sara Kelley,OH,90+,129.2,37,,85,,85,F,Open,Raw,B,,,,Yes
1,Sara Kelley,OH,90+,129.2,37,,85,,85,F,Submasters 35-39,Raw,B,,,,Yes
1,Michael Solomon,OH,60,58.9,17,,105,,105,M,Juniors 16-17,Raw,B,,,,Yes
1,Michael Harrison,OH,90,88.8,33,,145,,145,M,Open,Raw,B,,,,Yes
1,Ray Buffington,OH,125,124.1,36,,195,,195,M,Open,Raw,B,,,,Yes
2,Jason Santee,OH,125,123.8,41,,137.5,,137.5,M,Open,Raw,B,,,,Yes
1,Fred Marquinez,OH,67.5,64,57,,115,,115,M,Masters 55-59,Raw,B,,,,Yes
1,Todd Solomon,OH,75,68.1,48,,147.5,,147.5,M,Masters 45-49,Raw,B,,,,Yes
1,Orlando Gardner,OH,100,99.8,55,,122.5,,122.5,M,Masters 55-59,Raw,B,,,,Yes
1,Jason Santee,OH,125,123.8,41,,137.5,,137.5,M,Masters 40-44,Raw,B,,,,Yes
1,Sara Kelley,OH,90+,129.2,37,,,157.5,157.5,F,Open,Raw,D,,,,Yes
1,Sara Kelley,OH,90+,129.2,37,,,157.5,157.5,F,Submasters 35-39,Raw,D,,,,Yes
1,Casmir Hughes,OH,75,73.8,30,,,280,280,M,Open,Raw,D,,,,Yes
1,Carlo Lomanto,OH,82.5,81.8,36,,,232.5,232.5,M,Open,Raw,D,,,,Yes
1,John Schroeder,OH,90,86.5,21,,,282.5,282.5,M,Open,Raw,D,,,,Yes
1,Andrew Prater,OH,100,93.7,30,,,217.5,217.5,M,Open,Raw,D,,,,Yes
1,Carlo Lomanto,OH,82.5,81.8,36,,,232.5,232.5,M,Submasters 35-39,Raw,D,,,,Yes
1,Craig Eldridge,OH,100,96.1,56,,,230,230,M,Masters 55-59,Raw,D,,,,Yes
2,Orlando Gardner,OH,100,99.8,55,,,207.5,207.5,M,Masters 55-59,Raw,D,,,,Yes
1,Mike Quintus,OH,110,107,40,,,232.5,232.5,M,Masters 40-44,Raw,D,,,,Yes
1,Duane Fryberger,OH,110,109.2,48,,,247.5,247.5,M,Masters 45-49,Raw,D,,,,Yes
DQ,Travis Rossiter,OH,100,98.1,31,,,270,,M,Open,Raw,BD,,,,Yes
1,Tim Bonds,OH,125,123.4,36,,175,310,485,M,Open,Raw,BD,,,,Yes
1,Tim Bonds,OH,125,123.4,36,,175,310,485,M,Submasters 35-39,Raw,BD,,,,Yes
1,Adrian Scarpari,PA,67.5,66.5,45,,107.5,182.5,290,M,Masters 45-49,Raw,BD,,,,Yes
1,Keith Shinn,OH,100,97.2,43,,165,230,395,M,Masters 40-44,Raw,BD,,,237.5,Yes
1,Craig Eldridge,OH,100,96.1,56,,115,230,345,M,Masters 55-59,Raw,BD,,,,Yes
